<?xml version="1.0" standalone="no"?>
<!DOCTYPE svg PUBLIC "-//W3C//DTD SVG 1.1//EN" "http://www.w3.org/Graphics/SVG/1.1/DTD/svg11.dtd" >
<svg xmlns="http://www.w3.org/2000/svg">
<defs>
  <font id="flaticon" horiz-adv-x="300">
    <font-face font-family="flaticon"
      units-per-em="300" ascent="300"
      descent="0" />
    <missing-glyph horiz-adv-x="0" />
    <glyph glyph-name="001-fridge"
      unicode="&#xF101;"
      horiz-adv-x="300" d="M56.484375 188.2810546875V18.202734375C56.484375 13.348828125 60.41953125 9.413671875 65.2734375 9.413671875H75.3123046875V8.7890625000001C75.3123046875 3.93515625 79.2474609375 1e-13 84.1013671875 1e-13S92.8904296875 3.93515625 92.8904296875 8.7890625000001V9.413671875H207.1095703125V8.7890625000001C207.1095703125 3.93515625 211.0447265625 1e-13 215.8986328125 1e-13S224.6876953125 3.93515625 224.6876953125 8.7890625000001V9.413671875H234.7265625C239.58046875 9.413671875 243.515625 13.348828125 243.515625 18.202734375V188.2810546875zM121.7578125 150.624609375H102.9298828125C98.0759765625 150.624609375 94.1408203125 154.559765625 94.1408203125 159.413671875S98.0759765625 168.202734375 102.9298828125 168.202734375H121.7578125C126.61171875 168.202734375 130.546875 164.267578125 130.546875 159.413671875S126.61171875 150.624609375 121.7578125 150.624609375zM243.515625 205.8591796875V291.2109375C243.515625 296.06484375 239.58046875 300 234.7265625 300H65.2734375C60.41953125 300 56.484375 296.06484375 56.484375 291.2109375V205.8591796875zM102.9298828125 243.515625H121.7578125C126.61171875 243.515625 130.546875 239.58046875 130.546875 234.7265625S126.61171875 225.9375 121.7578125 225.9375H102.9298828125C98.0759765625 225.9375 94.1408203125 229.87265625 94.1408203125 234.7265625S98.0759765625 243.515625 102.9298828125 243.515625z" />
    <glyph glyph-name="001-fridge-1"
      unicode="&#x30;&#x30;&#x31;&#x2D;&#x66;&#x72;&#x69;&#x64;&#x67;&#x65;"
      horiz-adv-x="300" d="M56.484375 188.2810546875V18.202734375C56.484375 13.348828125 60.41953125 9.413671875 65.2734375 9.413671875H75.3123046875V8.7890625000001C75.3123046875 3.93515625 79.2474609375 1e-13 84.1013671875 1e-13S92.8904296875 3.93515625 92.8904296875 8.7890625000001V9.413671875H207.1095703125V8.7890625000001C207.1095703125 3.93515625 211.0447265625 1e-13 215.8986328125 1e-13S224.6876953125 3.93515625 224.6876953125 8.7890625000001V9.413671875H234.7265625C239.58046875 9.413671875 243.515625 13.348828125 243.515625 18.202734375V188.2810546875zM121.7578125 150.624609375H102.9298828125C98.0759765625 150.624609375 94.1408203125 154.559765625 94.1408203125 159.413671875S98.0759765625 168.202734375 102.9298828125 168.202734375H121.7578125C126.61171875 168.202734375 130.546875 164.267578125 130.546875 159.413671875S126.61171875 150.624609375 121.7578125 150.624609375zM243.515625 205.8591796875V291.2109375C243.515625 296.06484375 239.58046875 300 234.7265625 300H65.2734375C60.41953125 300 56.484375 296.06484375 56.484375 291.2109375V205.8591796875zM102.9298828125 243.515625H121.7578125C126.61171875 243.515625 130.546875 239.58046875 130.546875 234.7265625S126.61171875 225.9375 121.7578125 225.9375H102.9298828125C98.0759765625 225.9375 94.1408203125 229.87265625 94.1408203125 234.7265625S98.0759765625 243.515625 102.9298828125 243.515625z" />
    <glyph glyph-name="002-oven"
      unicode="&#xF102;"
      horiz-adv-x="300" d="M241.6177734375 183.1939453125H58.1455078125V70.1337890625H241.6177734375zM216.1435546875 147.65625H83.6197265625V165.234375H216.1435546875zM270.703125 282.421875V300H253.125V282.421875H182.2265625V300H164.6484375V282.421875H135.3515625V300H117.7734375V282.421875H46.875V300H29.296875V282.421875H0V0H47.220703125L53.080078125 17.4609375H246.919921875L252.779296875 0H300V282.421875zM225.76171875 250.623046875H243.41015625V233.044921875H225.76171875zM167.34375 250.623046875H184.986328125V233.044921875H167.34375zM108.919921875 250.623046875H126.5625V233.044921875H108.919921875zM50.49609375 250.623046875H68.138671875V233.044921875H50.49609375zM259.1953125000001 52.55859375H40.564453125V200.771484375H259.1953125000001z" />
    <glyph glyph-name="002-oven-1"
      unicode="&#x30;&#x30;&#x32;&#x2D;&#x6F;&#x76;&#x65;&#x6E;"
      horiz-adv-x="300" d="M241.6177734375 183.1939453125H58.1455078125V70.1337890625H241.6177734375zM216.1435546875 147.65625H83.6197265625V165.234375H216.1435546875zM270.703125 282.421875V300H253.125V282.421875H182.2265625V300H164.6484375V282.421875H135.3515625V300H117.7734375V282.421875H46.875V300H29.296875V282.421875H0V0H47.220703125L53.080078125 17.4609375H246.919921875L252.779296875 0H300V282.421875zM225.76171875 250.623046875H243.41015625V233.044921875H225.76171875zM167.34375 250.623046875H184.986328125V233.044921875H167.34375zM108.919921875 250.623046875H126.5625V233.044921875H108.919921875zM50.49609375 250.623046875H68.138671875V233.044921875H50.49609375zM259.1953125000001 52.55859375H40.564453125V200.771484375H259.1953125000001z" />
    <glyph glyph-name="003-sofa"
      unicode="&#xF103;"
      horiz-adv-x="300" d="M62.5001953125 175.0001953125V143.750390625H237.500390625V175.0001953125C237.500390625 192.225 251.5130859375 206.25 268.7501953125 206.25H275.0003906249999V225C275.0003906249999 235.3376953125 266.5880859374999 243.75 256.2503906249999 243.75H43.7501953125C33.4125 243.75 25.0001953125 235.3376953125 25.0001953125 225V206.25H31.250390625C48.4875 206.25 62.5001953125 192.225 62.5001953125 175.0001953125zM281.25 193.7501953125H268.7501953125C258.4125 193.7501953125 250.0001953125 185.337890625 250.0001953125 175.0001953125V137.5001953125C250.0001953125 134.0501953125 247.2 131.25 243.7500000000001 131.25H56.25C52.8 131.25 49.9998046875 134.0501953125 49.9998046875 137.5001953125V175.0001953125C49.9998046875 185.337890625 41.5875 193.7501953125 31.2498046875 193.7501953125H18.75C8.4123046875 193.7501953125 0 185.337890625 0 175.0001953125V100.0001953125C0 89.6625 8.4123046875 81.2501953125 18.75 81.2501953125H25.0001953125V62.5001953125C25.0001953125 59.0501953125 27.800390625 56.25 31.250390625 56.25H68.750390625C72.200390625 56.25 75.0005859375 59.0501953125 75.0005859375 62.5001953125V81.2501953125H225.0005859375V62.5001953125C225.0005859375 59.0501953125 227.80078125 56.25 231.25078125 56.25H268.75078125C272.20078125 56.25 275.0009765625 59.0501953125 275.0009765625 62.5001953125V81.2501953125H281.25C291.5876953125001 81.2501953125 300 89.6625 300 100.0001953125V175.0001953125C300 185.3373046875 291.5876953125 193.7501953125 281.25 193.7501953125z" />
    <glyph glyph-name="003-sofa-1"
      unicode="&#x30;&#x30;&#x33;&#x2D;&#x73;&#x6F;&#x66;&#x61;"
      horiz-adv-x="300" d="M62.5001953125 175.0001953125V143.750390625H237.500390625V175.0001953125C237.500390625 192.225 251.5130859375 206.25 268.7501953125 206.25H275.0003906249999V225C275.0003906249999 235.3376953125 266.5880859374999 243.75 256.2503906249999 243.75H43.7501953125C33.4125 243.75 25.0001953125 235.3376953125 25.0001953125 225V206.25H31.250390625C48.4875 206.25 62.5001953125 192.225 62.5001953125 175.0001953125zM281.25 193.7501953125H268.7501953125C258.4125 193.7501953125 250.0001953125 185.337890625 250.0001953125 175.0001953125V137.5001953125C250.0001953125 134.0501953125 247.2 131.25 243.7500000000001 131.25H56.25C52.8 131.25 49.9998046875 134.0501953125 49.9998046875 137.5001953125V175.0001953125C49.9998046875 185.337890625 41.5875 193.7501953125 31.2498046875 193.7501953125H18.75C8.4123046875 193.7501953125 0 185.337890625 0 175.0001953125V100.0001953125C0 89.6625 8.4123046875 81.2501953125 18.75 81.2501953125H25.0001953125V62.5001953125C25.0001953125 59.0501953125 27.800390625 56.25 31.250390625 56.25H68.750390625C72.200390625 56.25 75.0005859375 59.0501953125 75.0005859375 62.5001953125V81.2501953125H225.0005859375V62.5001953125C225.0005859375 59.0501953125 227.80078125 56.25 231.25078125 56.25H268.75078125C272.20078125 56.25 275.0009765625 59.0501953125 275.0009765625 62.5001953125V81.2501953125H281.25C291.5876953125001 81.2501953125 300 89.6625 300 100.0001953125V175.0001953125C300 185.3373046875 291.5876953125 193.7501953125 281.25 193.7501953125z" />
    <glyph glyph-name="004-television"
      unicode="&#xF104;"
      horiz-adv-x="300" d="M289.8052734375 260.7041015625H10.1947265625C4.564453125 260.7041015625 0 256.1396484375 0 250.509375V98.5341796875C0 92.90390625 4.564453125 88.339453125 10.1947265625 88.339453125H289.8052734375C295.435546875 88.339453125 300 92.90390625 300 98.5341796875V250.509375C300 256.1396484375 295.435546875 260.7041015625 289.8052734375 260.7041015625zM208.2556640625 56.982421875H173.644921875V70.6529296875H126.355078125V56.982421875H91.74375C86.8599609375 56.982421875 82.9001953125 53.0232421875 82.9001953125 48.1388671875C82.9001953125 43.255078125 86.859375 39.2953125 91.74375 39.2953125H208.2556640625C213.139453125 39.2953125 217.09921875 43.2544921875 217.09921875 48.1388671875C217.09921875 53.02265625 213.1400390625 56.982421875 208.2556640625 56.982421875z" />
    <glyph glyph-name="004-television-1"
      unicode="&#x30;&#x30;&#x34;&#x2D;&#x74;&#x65;&#x6C;&#x65;&#x76;&#x69;&#x73;&#x69;&#x6F;&#x6E;"
      horiz-adv-x="300" d="M289.8052734375 260.7041015625H10.1947265625C4.564453125 260.7041015625 0 256.1396484375 0 250.509375V98.5341796875C0 92.90390625 4.564453125 88.339453125 10.1947265625 88.339453125H289.8052734375C295.435546875 88.339453125 300 92.90390625 300 98.5341796875V250.509375C300 256.1396484375 295.435546875 260.7041015625 289.8052734375 260.7041015625zM208.2556640625 56.982421875H173.644921875V70.6529296875H126.355078125V56.982421875H91.74375C86.8599609375 56.982421875 82.9001953125 53.0232421875 82.9001953125 48.1388671875C82.9001953125 43.255078125 86.859375 39.2953125 91.74375 39.2953125H208.2556640625C213.139453125 39.2953125 217.09921875 43.2544921875 217.09921875 48.1388671875C217.09921875 53.02265625 213.1400390625 56.982421875 208.2556640625 56.982421875z" />
    <glyph glyph-name="005-pallet"
      unicode="&#xF105;"
      horiz-adv-x="300" d="M0.033984375 27.87890625V8.7890625C0.033984375 3.9375 3.9708984375 0 8.8212890625 0H43.9716796875C48.82265625 0 52.758984375 3.9375 52.758984375 8.7890625V26.3671875C9.2794921875 26.83125 7.34296875 25.2755859375 0.033984375 27.87890625zM123.645703125 8.7890625C123.645703125 3.9375 127.5826171875 0 132.4330078125 0H167.5833984375C172.434375 0 176.370703125 3.9375 176.370703125 8.7890625V26.3671875H123.6451171875V8.7890625zM247.257421875 26.3671875V8.7890625C247.257421875 3.9375 251.1943359375 0 256.0447265625 0H291.1951171875C296.04609375 0 299.982421875 3.9375 299.982421875 8.7890625V27.87890625C292.6552734375 25.269140625 290.2587890625 26.8259765625 247.2574218750001 26.3671875zM299.478515625 82.03125C287.951953125 82.03125 12.0767578125 82.03125 0.537890625 82.03125C-0.3849609375 79.4443359375 0.195703125 78.8578125 0.033984375 52.734375C0.033984375 47.8828125 3.9708984375 43.9453125 8.8212890625 43.9453125H291.19453125C296.0455078125 43.9453125 299.9818359375 47.8828125 299.9818359375 52.734375C299.8130859375 80.0806640625 300.365625 79.54453125 299.478515625 82.03125zM70.9201171875 300H88.4953125V282.421875H70.9201171875zM132.4330078125 300H106.0705078125V273.6328125C106.0705078125 268.77890625 102.1359375 264.84375 97.283203125 264.84375H62.1328125C57.2794921875 264.84375 53.3455078125 268.77890625 53.3455078125 273.6328125V300H26.982421875C22.1291015625 300 18.1951171875 296.06484375 18.1951171875 291.2109375V215.0390625C18.1951171875 210.18515625 22.1296875 206.25 26.982421875 206.25H132.4330078125C137.286328125 206.25 141.2203125 210.18515625 141.2203125 215.0390625V291.2109375C141.2208984375 296.06484375 137.286328125 300 132.4330078125 300zM211.52109375 300H229.0962890625V282.421875H211.52109375zM281.821875 291.2109375C281.821875 296.06484375 277.8873046875001 300 273.0345703125 300H246.6720703125V273.6328125C246.6720703125 268.77890625 242.7375 264.84375 237.884765625 264.84375H202.734375C197.8810546875 264.84375 193.9470703125 268.77890625 193.9470703125 273.6328125V300H167.5845703125C162.7312499999999 300 158.7972656249999 296.06484375 158.7972656249999 291.2109375V215.0390625C158.7972656249999 210.18515625 162.7318359374999 206.25 167.5845703125 206.25H273.03515625C277.8884765625 206.25 281.8224609375 210.18515625 281.8224609375 215.0390625V291.2109375zM70.9201171875 188.671875H88.4953125V171.09375H70.9201171875zM132.4330078125 188.671875H106.0705078125V162.3046875C106.0705078125 157.45078125 102.1359375 153.515625 97.283203125 153.515625H62.1328125C57.2794921875 153.515625 53.3455078125 157.45078125 53.3455078125 162.3046875V188.671875H26.982421875C22.1291015625 188.671875 18.1951171875 184.73671875 18.1951171875 179.8828125V108.3984375C18.1951171875 103.54453125 22.1296875 99.609375 26.982421875 99.609375H132.4330078125C137.286328125 99.609375 141.2203125 103.54453125 141.2203125 108.3984375V179.8828125C141.2208984375 184.73671875 137.286328125 188.671875 132.4330078125 188.671875zM211.52109375 188.671875H229.0962890625V171.09375H211.52109375zM273.033984375 188.671875H246.671484375V162.3046875C246.671484375 157.45078125 242.7369140625 153.515625 237.8841796875 153.515625H202.7337890625C197.88046875 153.515625 193.946484375 157.45078125 193.946484375 162.3046875V188.671875H167.583984375C162.7306640625 188.671875 158.7966796875 184.73671875 158.7966796875 179.8828125V108.3984375C158.7966796875 103.54453125 162.7312499999999 99.609375 167.583984375 99.609375H273.0345703125C277.887890625 99.609375 281.821875 103.54453125 281.821875 108.3984375V179.8828125C281.821875 184.73671875 277.8873046875 188.671875 273.033984375 188.671875z" />
    <glyph glyph-name="005-pallet-1"
      unicode="&#x30;&#x30;&#x35;&#x2D;&#x70;&#x61;&#x6C;&#x6C;&#x65;&#x74;"
      horiz-adv-x="300" d="M0.033984375 27.87890625V8.7890625C0.033984375 3.9375 3.9708984375 0 8.8212890625 0H43.9716796875C48.82265625 0 52.758984375 3.9375 52.758984375 8.7890625V26.3671875C9.2794921875 26.83125 7.34296875 25.2755859375 0.033984375 27.87890625zM123.645703125 8.7890625C123.645703125 3.9375 127.5826171875 0 132.4330078125 0H167.5833984375C172.434375 0 176.370703125 3.9375 176.370703125 8.7890625V26.3671875H123.6451171875V8.7890625zM247.257421875 26.3671875V8.7890625C247.257421875 3.9375 251.1943359375 0 256.0447265625 0H291.1951171875C296.04609375 0 299.982421875 3.9375 299.982421875 8.7890625V27.87890625C292.6552734375 25.269140625 290.2587890625 26.8259765625 247.2574218750001 26.3671875zM299.478515625 82.03125C287.951953125 82.03125 12.0767578125 82.03125 0.537890625 82.03125C-0.3849609375 79.4443359375 0.195703125 78.8578125 0.033984375 52.734375C0.033984375 47.8828125 3.9708984375 43.9453125 8.8212890625 43.9453125H291.19453125C296.0455078125 43.9453125 299.9818359375 47.8828125 299.9818359375 52.734375C299.8130859375 80.0806640625 300.365625 79.54453125 299.478515625 82.03125zM70.9201171875 300H88.4953125V282.421875H70.9201171875zM132.4330078125 300H106.0705078125V273.6328125C106.0705078125 268.77890625 102.1359375 264.84375 97.283203125 264.84375H62.1328125C57.2794921875 264.84375 53.3455078125 268.77890625 53.3455078125 273.6328125V300H26.982421875C22.1291015625 300 18.1951171875 296.06484375 18.1951171875 291.2109375V215.0390625C18.1951171875 210.18515625 22.1296875 206.25 26.982421875 206.25H132.4330078125C137.286328125 206.25 141.2203125 210.18515625 141.2203125 215.0390625V291.2109375C141.2208984375 296.06484375 137.286328125 300 132.4330078125 300zM211.52109375 300H229.0962890625V282.421875H211.52109375zM281.821875 291.2109375C281.821875 296.06484375 277.8873046875001 300 273.0345703125 300H246.6720703125V273.6328125C246.6720703125 268.77890625 242.7375 264.84375 237.884765625 264.84375H202.734375C197.8810546875 264.84375 193.9470703125 268.77890625 193.9470703125 273.6328125V300H167.5845703125C162.7312499999999 300 158.7972656249999 296.06484375 158.7972656249999 291.2109375V215.0390625C158.7972656249999 210.18515625 162.7318359374999 206.25 167.5845703125 206.25H273.03515625C277.8884765625 206.25 281.8224609375 210.18515625 281.8224609375 215.0390625V291.2109375zM70.9201171875 188.671875H88.4953125V171.09375H70.9201171875zM132.4330078125 188.671875H106.0705078125V162.3046875C106.0705078125 157.45078125 102.1359375 153.515625 97.283203125 153.515625H62.1328125C57.2794921875 153.515625 53.3455078125 157.45078125 53.3455078125 162.3046875V188.671875H26.982421875C22.1291015625 188.671875 18.1951171875 184.73671875 18.1951171875 179.8828125V108.3984375C18.1951171875 103.54453125 22.1296875 99.609375 26.982421875 99.609375H132.4330078125C137.286328125 99.609375 141.2203125 103.54453125 141.2203125 108.3984375V179.8828125C141.2208984375 184.73671875 137.286328125 188.671875 132.4330078125 188.671875zM211.52109375 188.671875H229.0962890625V171.09375H211.52109375zM273.033984375 188.671875H246.671484375V162.3046875C246.671484375 157.45078125 242.7369140625 153.515625 237.8841796875 153.515625H202.7337890625C197.88046875 153.515625 193.946484375 157.45078125 193.946484375 162.3046875V188.671875H167.583984375C162.7306640625 188.671875 158.7966796875 184.73671875 158.7966796875 179.8828125V108.3984375C158.7966796875 103.54453125 162.7312499999999 99.609375 167.583984375 99.609375H273.0345703125C277.887890625 99.609375 281.821875 103.54453125 281.821875 108.3984375V179.8828125C281.821875 184.73671875 277.8873046875 188.671875 273.033984375 188.671875z" />
    <glyph glyph-name="006-boxes"
      unicode="&#xF106;"
      horiz-adv-x="300" d="M290.625 81.25H206.25V134.375V253.125C206.25 258.3 202.05 262.5 196.875 262.5S187.5 258.3 187.5 253.125V143.75H174.65L145.2375 227.0625000000001C140.4 240.7875 127.375 250.0000000000001 112.825 250.0000000000001H71.875C66.7 250.0000000000001 62.5 245.8 62.5 240.6250000000001V175H34.375C15.4125 175 0 159.5875 0 140.625V84.375C0 72.3125 9.8125 62.5 21.875 62.5H25.6375C28.5375 48.25 41.1625 37.5 56.25 37.5S83.9625 48.25 86.8625 62.5H113.125C116.025 48.25 128.65 37.5 143.7375 37.5S171.45 48.25 174.35 62.5H196.8625H290.6125C295.7875 62.5 299.9875 66.7 299.9875 71.875S295.8 81.25 290.625 81.25zM81.25 231.25H112.825C119.4375 231.25 125.3625 227.0625 127.5625 220.825L154.7625 143.75H96.875C88.2625 143.75 81.25 150.7625 81.25 159.375V165.625zM56.25 56.25C49.35 56.25 43.75 61.8625 43.75 68.75S49.35 81.25 56.25 81.25S68.75 75.6375 68.75 68.75S63.15 56.25 56.25 56.25zM143.75 56.25C136.85 56.25 131.25 61.8625 131.25 68.75S136.85 81.25 143.75 81.25S156.25 75.6375 156.25 68.75S150.65 56.25 143.75 56.25zM271.875 162.5V153.125C271.875 147.95 267.675 143.75 262.5 143.75S253.125 147.95 253.125 153.125V162.5H231.25C227.8 162.5 225 159.7 225 156.25V106.25C225 102.8 227.8 100 231.25 100H293.75C297.2 100 300 102.8 300 106.25V156.25C300 159.7 297.2 162.5 293.75 162.5zM271.875 237.5V228.125C271.875 222.95 267.675 218.75 262.5 218.75S253.125 222.95 253.125 228.125V237.5H231.25C227.8 237.5 225 234.7 225 231.25V181.25C225 177.8 227.8 175 231.25 175H293.75C297.2 175 300 177.8 300 181.25V231.25C300 234.7 297.2 237.5 293.75 237.5z" />
    <glyph glyph-name="006-boxes-1"
      unicode="&#x30;&#x30;&#x36;&#x2D;&#x62;&#x6F;&#x78;&#x65;&#x73;"
      horiz-adv-x="300" d="M290.625 81.25H206.25V134.375V253.125C206.25 258.3 202.05 262.5 196.875 262.5S187.5 258.3 187.5 253.125V143.75H174.65L145.2375 227.0625000000001C140.4 240.7875 127.375 250.0000000000001 112.825 250.0000000000001H71.875C66.7 250.0000000000001 62.5 245.8 62.5 240.6250000000001V175H34.375C15.4125 175 0 159.5875 0 140.625V84.375C0 72.3125 9.8125 62.5 21.875 62.5H25.6375C28.5375 48.25 41.1625 37.5 56.25 37.5S83.9625 48.25 86.8625 62.5H113.125C116.025 48.25 128.65 37.5 143.7375 37.5S171.45 48.25 174.35 62.5H196.8625H290.6125C295.7875 62.5 299.9875 66.7 299.9875 71.875S295.8 81.25 290.625 81.25zM81.25 231.25H112.825C119.4375 231.25 125.3625 227.0625 127.5625 220.825L154.7625 143.75H96.875C88.2625 143.75 81.25 150.7625 81.25 159.375V165.625zM56.25 56.25C49.35 56.25 43.75 61.8625 43.75 68.75S49.35 81.25 56.25 81.25S68.75 75.6375 68.75 68.75S63.15 56.25 56.25 56.25zM143.75 56.25C136.85 56.25 131.25 61.8625 131.25 68.75S136.85 81.25 143.75 81.25S156.25 75.6375 156.25 68.75S150.65 56.25 143.75 56.25zM271.875 162.5V153.125C271.875 147.95 267.675 143.75 262.5 143.75S253.125 147.95 253.125 153.125V162.5H231.25C227.8 162.5 225 159.7 225 156.25V106.25C225 102.8 227.8 100 231.25 100H293.75C297.2 100 300 102.8 300 106.25V156.25C300 159.7 297.2 162.5 293.75 162.5zM271.875 237.5V228.125C271.875 222.95 267.675 218.75 262.5 218.75S253.125 222.95 253.125 228.125V237.5H231.25C227.8 237.5 225 234.7 225 231.25V181.25C225 177.8 227.8 175 231.25 175H293.75C297.2 175 300 177.8 300 181.25V231.25C300 234.7 297.2 237.5 293.75 237.5z" />
    <glyph glyph-name="007-delivery-truck"
      unicode="&#xF107;"
      horiz-adv-x="300" d="M10.5264705882353 114.9401960784314V242.5794117647059C10.5264705882353 249.6720588235295 16.2759803921569 255.4220588235295 23.3691176470588 255.4220588235295H150.9426470588235C158.0352941176471 255.4220588235295 163.7848039215686 249.6720588235295 163.7848039215686 242.5794117647059V114.939705882353C163.7848039215686 112.5754901960785 161.8686274509804 110.6588235294118 159.5039215686274 110.6588235294118H14.8073529411765C12.4426470588235 110.6588235294118 10.5264705882353 112.5754901960785 10.5264705882353 114.9401960784314zM113.5460784313725 71.2137254901961C113.5460784313725 56.5029411764706 101.6200980392157 44.5774509803922 86.9098039215686 44.5774509803922C72.1995098039216 44.5774509803922 60.2735294117647 56.5029411764706 60.2735294117647 71.2137254901961C60.2735294117647 85.925 72.1995098039216 97.85 86.9098039215686 97.85C101.6200980392157 97.85 113.5460784313725 85.925 113.5460784313725 71.2137254901961zM100.2274509803922 71.2137254901961C100.2274509803922 78.5691176470589 94.2647058823529 84.531862745098 86.9093137254902 84.531862745098S73.5906862745098 78.5691176470589 73.5906862745098 71.2137254901961S79.5539215686275 57.8950980392157 86.9093137254902 57.8950980392157S100.2274509803922 63.8583333333334 100.2274509803922 71.2137254901961zM63.968137254902 97.8504901960785H4.2808823529412C1.9166666666667 97.8504901960785 0 95.9338235294118 0 93.5696078431373V80.5818627450981C0 78.2176470588236 1.9166666666667 76.3009803921569 4.2808823529412 76.3009803921569H52.1230392156863C53.3720588235294 84.871568627451 57.6980392156863 92.4421568627451 63.968137254902 97.8504901960785zM252.9107843137255 71.2137254901961C252.9107843137255 56.5029411764706 240.9848039215686 44.5774509803922 226.2745098039216 44.5774509803922C211.5637254901961 44.5774509803922 199.6382352941176 56.5029411764706 199.6382352941176 71.2137254901961C199.6382352941176 85.925 211.563725490196 97.85 226.2745098039216 97.85C240.9848039215686 97.8504901960785 252.9107843137255 85.925 252.9107843137255 71.2137254901961zM239.593137254902 71.2137254901961C239.593137254902 78.5691176470589 233.6299019607843 84.531862745098 226.2745098039216 84.531862745098C218.9186274509804 84.531862745098 212.9563725490196 78.5691176470589 212.9563725490196 71.2137254901961S218.9191176470588 57.8950980392157 226.2745098039216 57.8950980392157S239.593137254902 63.8583333333334 239.593137254902 71.2137254901961zM300 93.5696078431373V80.5818627450981C300 78.2176470588236 298.0833333333333 76.3009803921569 295.7191176470589 76.3009803921569H261.0602941176471C258.5813725490197 93.3024509803922 243.9495098039216 106.4122549019608 226.2754901960785 106.4122549019608C208.5980392156863 106.4122549019608 193.9656862745098 93.3019607843137 191.4867647058824 76.3009803921569H121.696568627451C120.4470588235294 84.8710784313726 116.121568627451 92.4421568627451 109.8514705882353 97.8504901960785H176.025V220.2970588235294C176.025 225.0254901960785 179.8583333333333 228.8588235294118 184.5867647058824 228.8588235294118H225.0009803921569C236.3803921568628 228.8588235294118 247.0161764705882 223.2063725490196 253.3833333333334 213.7754901960784L279.4372549019608 175.1867647058824C283.2588235294118 169.5264705882353 285.3009803921569 162.8529411764706 285.3009803921569 156.0230392156863V97.8504901960785H295.7191176470589C298.0833333333333 97.8504901960785 300 95.9338235294118 300 93.5696078431373zM256.5725490196079 174.1985294117647L235.7387254901961 203.8029411764706C234.9367647058824 204.9421568627451 233.6308823529412 205.6200980392157 232.2377450980393 205.6200980392157H199.7401960784314C197.3764705882353 205.6200980392157 195.4593137254902 203.703431372549 195.4593137254902 201.3392156862745V171.7348039215687C195.4593137254902 169.3700980392157 197.3759803921569 167.4539215686275 199.7401960784314 167.4539215686275H253.0725490196079C256.5401960784314 167.4539215686275 258.5686274509804 171.3622549019608 256.5725490196079 174.1985294117647z" />
    <glyph glyph-name="007-delivery-truck-1"
      unicode="&#x30;&#x30;&#x37;&#x2D;&#x64;&#x65;&#x6C;&#x69;&#x76;&#x65;&#x72;&#x79;&#x2D;&#x74;&#x72;&#x75;&#x63;&#x6B;"
      horiz-adv-x="300" d="M10.5264705882353 114.9401960784314V242.5794117647059C10.5264705882353 249.6720588235295 16.2759803921569 255.4220588235295 23.3691176470588 255.4220588235295H150.9426470588235C158.0352941176471 255.4220588235295 163.7848039215686 249.6720588235295 163.7848039215686 242.5794117647059V114.939705882353C163.7848039215686 112.5754901960785 161.8686274509804 110.6588235294118 159.5039215686274 110.6588235294118H14.8073529411765C12.4426470588235 110.6588235294118 10.5264705882353 112.5754901960785 10.5264705882353 114.9401960784314zM113.5460784313725 71.2137254901961C113.5460784313725 56.5029411764706 101.6200980392157 44.5774509803922 86.9098039215686 44.5774509803922C72.1995098039216 44.5774509803922 60.2735294117647 56.5029411764706 60.2735294117647 71.2137254901961C60.2735294117647 85.925 72.1995098039216 97.85 86.9098039215686 97.85C101.6200980392157 97.85 113.5460784313725 85.925 113.5460784313725 71.2137254901961zM100.2274509803922 71.2137254901961C100.2274509803922 78.5691176470589 94.2647058823529 84.531862745098 86.9093137254902 84.531862745098S73.5906862745098 78.5691176470589 73.5906862745098 71.2137254901961S79.5539215686275 57.8950980392157 86.9093137254902 57.8950980392157S100.2274509803922 63.8583333333334 100.2274509803922 71.2137254901961zM63.968137254902 97.8504901960785H4.2808823529412C1.9166666666667 97.8504901960785 0 95.9338235294118 0 93.5696078431373V80.5818627450981C0 78.2176470588236 1.9166666666667 76.3009803921569 4.2808823529412 76.3009803921569H52.1230392156863C53.3720588235294 84.871568627451 57.6980392156863 92.4421568627451 63.968137254902 97.8504901960785zM252.9107843137255 71.2137254901961C252.9107843137255 56.5029411764706 240.9848039215686 44.5774509803922 226.2745098039216 44.5774509803922C211.5637254901961 44.5774509803922 199.6382352941176 56.5029411764706 199.6382352941176 71.2137254901961C199.6382352941176 85.925 211.563725490196 97.85 226.2745098039216 97.85C240.9848039215686 97.8504901960785 252.9107843137255 85.925 252.9107843137255 71.2137254901961zM239.593137254902 71.2137254901961C239.593137254902 78.5691176470589 233.6299019607843 84.531862745098 226.2745098039216 84.531862745098C218.9186274509804 84.531862745098 212.9563725490196 78.5691176470589 212.9563725490196 71.2137254901961S218.9191176470588 57.8950980392157 226.2745098039216 57.8950980392157S239.593137254902 63.8583333333334 239.593137254902 71.2137254901961zM300 93.5696078431373V80.5818627450981C300 78.2176470588236 298.0833333333333 76.3009803921569 295.7191176470589 76.3009803921569H261.0602941176471C258.5813725490197 93.3024509803922 243.9495098039216 106.4122549019608 226.2754901960785 106.4122549019608C208.5980392156863 106.4122549019608 193.9656862745098 93.3019607843137 191.4867647058824 76.3009803921569H121.696568627451C120.4470588235294 84.8710784313726 116.121568627451 92.4421568627451 109.8514705882353 97.8504901960785H176.025V220.2970588235294C176.025 225.0254901960785 179.8583333333333 228.8588235294118 184.5867647058824 228.8588235294118H225.0009803921569C236.3803921568628 228.8588235294118 247.0161764705882 223.2063725490196 253.3833333333334 213.7754901960784L279.4372549019608 175.1867647058824C283.2588235294118 169.5264705882353 285.3009803921569 162.8529411764706 285.3009803921569 156.0230392156863V97.8504901960785H295.7191176470589C298.0833333333333 97.8504901960785 300 95.9338235294118 300 93.5696078431373zM256.5725490196079 174.1985294117647L235.7387254901961 203.8029411764706C234.9367647058824 204.9421568627451 233.6308823529412 205.6200980392157 232.2377450980393 205.6200980392157H199.7401960784314C197.3764705882353 205.6200980392157 195.4593137254902 203.703431372549 195.4593137254902 201.3392156862745V171.7348039215687C195.4593137254902 169.3700980392157 197.3759803921569 167.4539215686275 199.7401960784314 167.4539215686275H253.0725490196079C256.5401960784314 167.4539215686275 258.5686274509804 171.3622549019608 256.5725490196079 174.1985294117647z" />
    <glyph glyph-name="008-delivery"
      unicode="&#xF108;"
      horiz-adv-x="300" d="M163.603125 231.8970703125C165.5876953125 233.026171875 167.9291015625 233.358984375 170.145703125 232.8123046875L196.4337890625 226.37109375L192.1734375 256.7537109375L135.84140625 248.8505859375L140.1017578125 218.462109375zM153.76875 121.03359375L177.2701171875 134.46328125C179.2546875 135.5982421875 181.59609375 135.9310546875 183.8185546875 135.384375C210.16640625 128.925 205.6740234375 130.0306640625 210.106640625 128.9373046875001L205.83984375 159.32578125C164.98125 153.591796875 177.84609375 155.3982421875 149.5078125 151.4167968750001zM211.09921875 52.3775390625C186.5654296875 72.5220703125 152.520703125 36.823828125 177.1869140625 13.2005859375C191.6619140625 -0.4904296875 215.9361328125 6.598828125 220.285546875 26.61796875L220.3330078125 26.623828125C222.514453125 36.840234375 218.521875 46.63828125 211.09921875 52.3775390625zM252.1658203125 183.842578125L241.790625 257.7966796875C241.3412109375 261.001171875 238.3787109375 263.234765625 235.17421875 262.7853515625L209.8271484375 259.231640625L215.91796875 215.8177734375C216.7916015625 209.5787109375 211.0751953125 204.420703125 204.9662109375 205.92421875L169.3546875 214.653515625L137.5224609375 196.4583984375C132.09140625 193.3623046875 125.1568359375 196.683984375 124.27734375 202.959375L118.1806640625 246.3732421875L92.840625 242.81953125C89.6361328125 242.3701171875 87.4025390625 239.4076171875 87.851953125 236.203125L98.2271484375 162.24375C105.666796875 163.2884765625 244.6546875 182.7908203125 252.1658203125 183.842578125zM291.713671875 54.737109375L270.7048828125 51.6884765625C269.7966796875 58.21171875 255.4435546875 160.4671875 254.6431640625 166.1712890625L223.494140625 161.8037109375L229.5849609375 118.38984375C229.9833984375 115.5375 228.9908203125 112.584375 226.7326171875 110.5400390625C224.5400390625 108.55546875 221.5095703125 107.7890625 218.6390625 108.495703125L183.0275390625 117.2250000000001C148.2123046875 97.3248046875 149.96484375 97.8591796875001 146.76796875 97.8591796875001C142.3171875 97.8591796875001 138.5560546875 101.1392578125001 137.94375 105.5308593750001L131.8529296875 148.9447265625001L100.70390625 144.5712890625001L116.0619140625 33.3585937500001C111.4201171875 32.6314453125001 114.941015625 33.127734375 98.2458984375 30.8830078125001L64.2919921875 275.3830078125001C62.6466796875 287.1064453125001 51.7728515625 295.3066406250001 40.048828125 293.6666015625001L7.67578125 289.1208984375001C2.803125 288.4376953125001 -0.5958984375 283.9330078125 0.0873046875 279.0603515625001C0.7705078125 274.1818359375001 5.2810546875 270.7828125000001 10.153125 271.4718750000001L42.5203125 276.0117187500001C44.5107421875 276.2912109375001 46.3587890625 274.8943359375001 46.63828125 272.9039062500001L81.8337890625 19.5796875000001C82.52578125 14.6226562500001 87.1259765625 11.3003906250001 91.89375 11.9912109375001C120.15703125 15.8513671875 107.973046875 14.1615234375001 149.497265625 19.9875000000001L149.4919921875 20.0255859375001L153.1025390625 20.5324218750001C152.32734375 26.0349609375 151.3646484375 31.0283203125001 152.5201171875 38.448046875C155.1943359375 55.8410156250001 167.9220703125 70.6787109375001 185.77265625 74.8974609375001C213.406640625 81.4359375000001 238.44609375 59.4298828125 238.735546875 32.54765625L293.776171875 40.3939453125001C297.137109375 40.8732421875001 299.7146484375 43.6218750000001 299.9771484375 47.0062500000001C300.3369140625 51.6363281250001 296.3091796875 55.4039062500001 291.713671875 54.7371093750001z" />
    <glyph glyph-name="008-delivery-1"
      unicode="&#x30;&#x30;&#x38;&#x2D;&#x64;&#x65;&#x6C;&#x69;&#x76;&#x65;&#x72;&#x79;"
      horiz-adv-x="300" d="M163.603125 231.8970703125C165.5876953125 233.026171875 167.9291015625 233.358984375 170.145703125 232.8123046875L196.4337890625 226.37109375L192.1734375 256.7537109375L135.84140625 248.8505859375L140.1017578125 218.462109375zM153.76875 121.03359375L177.2701171875 134.46328125C179.2546875 135.5982421875 181.59609375 135.9310546875 183.8185546875 135.384375C210.16640625 128.925 205.6740234375 130.0306640625 210.106640625 128.9373046875001L205.83984375 159.32578125C164.98125 153.591796875 177.84609375 155.3982421875 149.5078125 151.4167968750001zM211.09921875 52.3775390625C186.5654296875 72.5220703125 152.520703125 36.823828125 177.1869140625 13.2005859375C191.6619140625 -0.4904296875 215.9361328125 6.598828125 220.285546875 26.61796875L220.3330078125 26.623828125C222.514453125 36.840234375 218.521875 46.63828125 211.09921875 52.3775390625zM252.1658203125 183.842578125L241.790625 257.7966796875C241.3412109375 261.001171875 238.3787109375 263.234765625 235.17421875 262.7853515625L209.8271484375 259.231640625L215.91796875 215.8177734375C216.7916015625 209.5787109375 211.0751953125 204.420703125 204.9662109375 205.92421875L169.3546875 214.653515625L137.5224609375 196.4583984375C132.09140625 193.3623046875 125.1568359375 196.683984375 124.27734375 202.959375L118.1806640625 246.3732421875L92.840625 242.81953125C89.6361328125 242.3701171875 87.4025390625 239.4076171875 87.851953125 236.203125L98.2271484375 162.24375C105.666796875 163.2884765625 244.6546875 182.7908203125 252.1658203125 183.842578125zM291.713671875 54.737109375L270.7048828125 51.6884765625C269.7966796875 58.21171875 255.4435546875 160.4671875 254.6431640625 166.1712890625L223.494140625 161.8037109375L229.5849609375 118.38984375C229.9833984375 115.5375 228.9908203125 112.584375 226.7326171875 110.5400390625C224.5400390625 108.55546875 221.5095703125 107.7890625 218.6390625 108.495703125L183.0275390625 117.2250000000001C148.2123046875 97.3248046875 149.96484375 97.8591796875001 146.76796875 97.8591796875001C142.3171875 97.8591796875001 138.5560546875 101.1392578125001 137.94375 105.5308593750001L131.8529296875 148.9447265625001L100.70390625 144.5712890625001L116.0619140625 33.3585937500001C111.4201171875 32.6314453125001 114.941015625 33.127734375 98.2458984375 30.8830078125001L64.2919921875 275.3830078125002C62.6466796875 287.1064453125001 51.7728515625 295.3066406250001 40.048828125 293.6666015625001L7.67578125 289.1208984375001C2.803125 288.4376953125002 -0.5958984375 283.9330078125 0.0873046875 279.0603515625001C0.7705078125 274.1818359375002 5.2810546875 270.7828125000001 10.153125 271.4718750000002L42.5203125 276.0117187500001C44.5107421875 276.2912109375002 46.3587890625 274.8943359375001 46.63828125 272.9039062500001L81.8337890625 19.5796875000001C82.52578125 14.6226562500001 87.1259765625 11.3003906250001 91.89375 11.9912109375001C120.15703125 15.8513671875 107.973046875 14.1615234375001 149.497265625 19.9875000000001L149.4919921875 20.0255859375001L153.1025390625 20.5324218750001C152.32734375 26.0349609375 151.3646484375 31.0283203125001 152.5201171875 38.448046875C155.1943359375 55.8410156250001 167.9220703125 70.6787109375001 185.77265625 74.8974609375001C213.406640625 81.4359375000001 238.44609375 59.4298828125 238.735546875 32.54765625L293.776171875 40.3939453125001C297.137109375 40.8732421875001 299.7146484375 43.6218750000001 299.9771484375 47.0062500000001C300.3369140625 51.6363281250001 296.3091796875 55.4039062500001 291.713671875 54.7371093750001z" />
    <glyph glyph-name="009-boxes-1"
      unicode="&#xF109;"
      horiz-adv-x="300" d="M295.95 201.475L155.325 298.35C152.125 300.55 147.9 300.55 144.6875 298.35L4.0625 201.475C1.5125 199.725 0 196.8375 0 193.75V12.5C0 5.6 5.6 1e-13 12.5 1e-13H37.5V150C37.5 156.9 43.1 162.5 50 162.5H250C256.9 162.5 262.5 156.9 262.5 150V1e-13H287.5C294.4 1e-13 300 5.6 300 12.5V193.75C300 196.8375 298.4875 199.725 295.95 201.475zM115.625 62.5V53.125C115.625 47.95 111.425 43.75 106.25 43.75S96.875 47.95 96.875 53.125V62.5H75C71.55 62.5 68.75 59.7 68.75 56.25V6.25C68.75 2.8 71.55 0 75 0H137.5C140.95 0 143.75 2.8 143.75 6.25V56.25C143.75 59.7 140.95 62.5 137.5 62.5zM203.125 62.5V53.125C203.125 47.95 198.925 43.75 193.75 43.75S184.375 47.95 184.375 53.125V62.5H162.5C159.05 62.5 156.25 59.7 156.25 56.25V6.25C156.25 2.8 159.05 0 162.5 0H225C228.45 0 231.25 2.8 231.25 6.25V56.25C231.25 59.7 228.45 62.5 225 62.5zM159.375 137.5V128.125C159.375 122.95 155.175 118.75 150 118.75S140.625 122.95 140.625 128.125V137.5H118.75C115.3 137.5 112.5 134.7 112.5 131.25V81.25C112.5 77.8 115.3 75 118.75 75H181.25C184.7 75 187.5 77.8 187.5 81.25V131.25C187.5 134.7 184.7000000000001 137.5 181.25 137.5z" />
    <glyph glyph-name="009-boxes-1-1"
      unicode="&#x30;&#x30;&#x39;&#x2D;&#x62;&#x6F;&#x78;&#x65;&#x73;&#x2D;&#x31;"
      horiz-adv-x="300" d="M295.95 201.475L155.325 298.35C152.125 300.55 147.9 300.55 144.6875 298.35L4.0625 201.475C1.5125 199.725 0 196.8375 0 193.75V12.5C0 5.6 5.6 1e-13 12.5 1e-13H37.5V150C37.5 156.9 43.1 162.5 50 162.5H250C256.9 162.5 262.5 156.9 262.5 150V1e-13H287.5C294.4 1e-13 300 5.6 300 12.5V193.75C300 196.8375 298.4875 199.725 295.95 201.475zM115.625 62.5V53.125C115.625 47.95 111.425 43.75 106.25 43.75S96.875 47.95 96.875 53.125V62.5H75C71.55 62.5 68.75 59.7 68.75 56.25V6.25C68.75 2.8 71.55 0 75 0H137.5C140.95 0 143.75 2.8 143.75 6.25V56.25C143.75 59.7 140.95 62.5 137.5 62.5zM203.125 62.5V53.125C203.125 47.95 198.925 43.75 193.75 43.75S184.375 47.95 184.375 53.125V62.5H162.5C159.05 62.5 156.25 59.7 156.25 56.25V6.25C156.25 2.8 159.05 0 162.5 0H225C228.45 0 231.25 2.8 231.25 6.25V56.25C231.25 59.7 228.45 62.5 225 62.5zM159.375 137.5V128.125C159.375 122.95 155.175 118.75 150 118.75S140.625 122.95 140.625 128.125V137.5H118.75C115.3 137.5 112.5 134.7 112.5 131.25V81.25C112.5 77.8 115.3 75 118.75 75H181.25C184.7 75 187.5 77.8 187.5 81.25V131.25C187.5 134.7 184.7000000000001 137.5 181.25 137.5z" />
    <glyph glyph-name="010-storage"
      unicode="&#xF10A;"
      horiz-adv-x="300" d="M291.2109375 35.15625H8.7890625C3.93515625 35.15625 0 31.22109375 0 26.3671875V8.7890625C0 3.93515625 3.93515625 0 8.7890625 0H291.2109375C296.06484375 0 300 3.93515625 300 8.7890625V26.3671875C300 31.22109375 296.06484375 35.15625 291.2109375 35.15625zM291.2109375 175.78125H8.7890625C3.93515625 175.78125 0 171.84609375 0 166.9921875V149.4140625C0 144.56015625 3.93515625 140.625 8.7890625 140.625H291.2109375C296.06484375 140.625 300 144.56015625 300 149.4140625V166.9921875C300 171.84609375 296.06484375 175.78125 291.2109375 175.78125zM167.578125 123.046875C162.72421875 123.046875 158.7890625 119.11171875 158.7890625 114.2578125V52.734375H246.6796875V114.2578125C246.6796875 119.11171875 242.74453125 123.046875 237.890625 123.046875H211.5234375V105.46875C211.5234375 100.61484375 207.58828125 96.6796875 202.734375 96.6796875S193.9453125 100.61484375 193.9453125 105.46875V123.046875zM62.109375 123.046875C57.25546875 123.046875 53.3203125 119.11171875 53.3203125 114.2578125V52.734375H141.2109375V114.2578125C141.2109375 119.11171875 137.27578125 123.046875 132.421875 123.046875H106.0546875V105.46875C106.0546875 100.61484375 102.11953125 96.6796875 97.265625 96.6796875S88.4765625 100.61484375 88.4765625 105.46875V123.046875zM246.6796875 254.8828125C246.6796875 259.73671875 242.74453125 263.671875 237.890625 263.671875H211.5234375V246.09375C211.5234375 241.23984375 207.58828125 237.3046875 202.734375 237.3046875S193.9453125 241.23984375 193.9453125 246.09375V263.671875H167.578125C162.72421875 263.671875 158.7890625 259.73671875 158.7890625 254.8828125V193.359375H246.6796875zM141.2109375 254.8828125C141.2109375 259.73671875 137.27578125 263.671875 132.421875 263.671875H106.0546875V246.09375C106.0546875 241.23984375 102.11953125 237.3046875 97.265625 237.3046875S88.4765625 241.23984375 88.4765625 246.09375V263.671875H62.109375C57.25546875 263.671875 53.3203125 259.73671875 53.3203125 254.8828125V193.359375H141.2109375zM264.2578125 123.046875H281.8359375V52.734375H264.2578125zM281.8359375 291.2109375C281.8359375 296.06484375 277.90078125 300 273.046875 300S264.2578125 296.06484375 264.2578125 291.2109375V193.359375H281.8359375zM18.1640625 123.046875H35.7421875V52.734375H18.1640625zM35.7421875 291.2109375C35.7421875 296.06484375 31.80703125 300 26.953125 300S18.1640625 296.06484375 18.1640625 291.2109375V193.359375H35.7421875z" />
    <glyph glyph-name="010-storage-1"
      unicode="&#x30;&#x31;&#x30;&#x2D;&#x73;&#x74;&#x6F;&#x72;&#x61;&#x67;&#x65;"
      horiz-adv-x="300" d="M291.2109375 35.15625H8.7890625C3.93515625 35.15625 0 31.22109375 0 26.3671875V8.7890625C0 3.93515625 3.93515625 0 8.7890625 0H291.2109375C296.06484375 0 300 3.93515625 300 8.7890625V26.3671875C300 31.22109375 296.06484375 35.15625 291.2109375 35.15625zM291.2109375 175.78125H8.7890625C3.93515625 175.78125 0 171.84609375 0 166.9921875V149.4140625C0 144.56015625 3.93515625 140.625 8.7890625 140.625H291.2109375C296.06484375 140.625 300 144.56015625 300 149.4140625V166.9921875C300 171.84609375 296.06484375 175.78125 291.2109375 175.78125zM167.578125 123.046875C162.72421875 123.046875 158.7890625 119.11171875 158.7890625 114.2578125V52.734375H246.6796875V114.2578125C246.6796875 119.11171875 242.74453125 123.046875 237.890625 123.046875H211.5234375V105.46875C211.5234375 100.61484375 207.58828125 96.6796875 202.734375 96.6796875S193.9453125 100.61484375 193.9453125 105.46875V123.046875zM62.109375 123.046875C57.25546875 123.046875 53.3203125 119.11171875 53.3203125 114.2578125V52.734375H141.2109375V114.2578125C141.2109375 119.11171875 137.27578125 123.046875 132.421875 123.046875H106.0546875V105.46875C106.0546875 100.61484375 102.11953125 96.6796875 97.265625 96.6796875S88.4765625 100.61484375 88.4765625 105.46875V123.046875zM246.6796875 254.8828125C246.6796875 259.73671875 242.74453125 263.671875 237.890625 263.671875H211.5234375V246.09375C211.5234375 241.23984375 207.58828125 237.3046875 202.734375 237.3046875S193.9453125 241.23984375 193.9453125 246.09375V263.671875H167.578125C162.72421875 263.671875 158.7890625 259.73671875 158.7890625 254.8828125V193.359375H246.6796875zM141.2109375 254.8828125C141.2109375 259.73671875 137.27578125 263.671875 132.421875 263.671875H106.0546875V246.09375C106.0546875 241.23984375 102.11953125 237.3046875 97.265625 237.3046875S88.4765625 241.23984375 88.4765625 246.09375V263.671875H62.109375C57.25546875 263.671875 53.3203125 259.73671875 53.3203125 254.8828125V193.359375H141.2109375zM264.2578125 123.046875H281.8359375V52.734375H264.2578125zM281.8359375 291.2109375C281.8359375 296.06484375 277.90078125 300 273.046875 300S264.2578125 296.06484375 264.2578125 291.2109375V193.359375H281.8359375zM18.1640625 123.046875H35.7421875V52.734375H18.1640625zM35.7421875 291.2109375C35.7421875 296.06484375 31.80703125 300 26.953125 300S18.1640625 296.06484375 18.1640625 291.2109375V193.359375H35.7421875z" />
    <glyph glyph-name="011-drop-shipping"
      unicode="&#xF10B;"
      horiz-adv-x="300" d="M83.1171977733185 135.8465238875874C109.3127494905167 144.8384405413908 130.9777585859908 137.284409907912 142.6731119808204 131.1096478459065H203.7073582483543C215.0445590307019 131.1096478459065 224.9462184906788 124.7848251148414 230.178411975154 115.4371005465101L248.8527588302302 128.7368135164022V287.1985353453448H185.4802625280142V184.414597307896H123.9249071401914V287.1985353453448H60.5535831869525V122.7765913171927C66.2851973356415 127.8317601061367 73.6891673000608 132.6096683620136 83.1171977733185 135.8465238875874zM141.5101417956088 287.1985353453447H167.8950278725969V201.9998319633133H141.5101417956088zM295.9354660966445 113.8104663408839C292.5438605061031 118.572547885571 287.5010013814179 121.7285113317298 281.7353891123951 122.6974577612433C275.9691906688837 123.6687488887109 270.1725111519697 122.3328572293877 265.4110157817712 118.9412516388462L233.8906550109126 96.4919410777405C232.0465500700479 81.2625416916605 219.2187075634094 69.4282649430532 203.7067720738658 69.4282649430532H165.8668641423388V87.0134995984705H203.7067720738658C210.7842428481827 87.0134995984705 216.5416486743664 92.9602397844441 216.5416486743664 100.2692494817241S210.7842428481827 113.5244131904891 203.7067720738658 113.5244131904891H138.0950892255267L138.0810210378024 113.5226546670236C128.2625983551944 120.2273184666457 110.148048136649 126.5322112651014 88.8271234659325 119.2132366015166C70.1879470801671 112.8145558848988 62.3619314840179 98.4356956816525 60.3835925852835 94.1290717145409V12.8008784801668H191.5852698258866L290.8128872415214 83.2924639453842C295.5661761688807 86.677621616552 298.7227257895281 91.7204807412372 299.6922583935301 97.4855068357715C300.6612048230436 103.2511191047943 299.327071687186 109.0489709706854 295.9354660966445 113.8104663408839zM0 109.9446455891347H42.7977717553777V12.8008784801668H0z" />
    <glyph glyph-name="011-drop-shipping-1"
      unicode="&#x30;&#x31;&#x31;&#x2D;&#x64;&#x72;&#x6F;&#x70;&#x2D;&#x73;&#x68;&#x69;&#x70;&#x70;&#x69;&#x6E;&#x67;"
      horiz-adv-x="300" d="M83.1171977733185 135.8465238875874C109.3127494905167 144.8384405413908 130.9777585859908 137.284409907912 142.6731119808204 131.1096478459065H203.7073582483543C215.0445590307019 131.1096478459065 224.9462184906788 124.7848251148414 230.178411975154 115.4371005465101L248.8527588302302 128.7368135164022V287.1985353453448H185.4802625280142V184.414597307896H123.9249071401914V287.1985353453448H60.5535831869525V122.7765913171927C66.2851973356415 127.8317601061367 73.6891673000608 132.6096683620136 83.1171977733185 135.8465238875874zM141.5101417956088 287.1985353453447H167.8950278725969V201.9998319633133H141.5101417956088zM295.9354660966445 113.8104663408839C292.5438605061031 118.572547885571 287.5010013814179 121.7285113317298 281.7353891123952 122.6974577612433C275.9691906688837 123.6687488887109 270.1725111519697 122.3328572293877 265.4110157817712 118.9412516388462L233.8906550109126 96.4919410777405C232.0465500700479 81.2625416916605 219.2187075634094 69.4282649430532 203.7067720738658 69.4282649430532H165.8668641423388V87.0134995984705H203.7067720738658C210.7842428481827 87.0134995984705 216.5416486743664 92.9602397844441 216.5416486743664 100.2692494817241S210.7842428481827 113.5244131904891 203.7067720738658 113.5244131904891H138.0950892255267L138.0810210378024 113.5226546670236C128.2625983551944 120.2273184666457 110.148048136649 126.5322112651014 88.8271234659325 119.2132366015166C70.1879470801671 112.8145558848988 62.3619314840179 98.4356956816525 60.3835925852835 94.1290717145409V12.8008784801668H191.5852698258866L290.8128872415214 83.2924639453842C295.5661761688807 86.677621616552 298.7227257895281 91.7204807412372 299.6922583935301 97.4855068357715C300.6612048230436 103.2511191047943 299.327071687186 109.0489709706854 295.9354660966445 113.8104663408839zM0 109.9446455891347H42.7977717553777V12.8008784801668H0z" />
    <glyph glyph-name="012-approved"
      unicode="&#xF10C;"
      horiz-adv-x="300" d="M218.75 162.5C173.95 162.5 137.5 126.05 137.5 81.25S173.95 0 218.75 0S300 36.45 300 81.25S263.55 162.5 218.75 162.5zM253.9625 96.9875L213.3375 50.1125C211.625 48.15 209.1875 46.975 206.5875 46.8875C206.475 46.8875 206.3625 46.8875 206.25 46.8875C203.7625 46.8875 201.375 47.875 199.625 49.6375L177.75 71.5125C174.0875 75.175 174.0875 81.1125 177.75 84.775S187.35 88.4375 191.0125 84.775L205.775 70.025L239.8 109.2875C243.1875 113.1875 249.1 113.625 253.025 110.2375C256.925 106.8125 257.35 100.9 253.9625 96.9875zM115.25 300L54.5 299.75C46.625 299.75 39.25 295.375 35.5 288.5L3.75 231L109.125 231.25zM246 231.5L213.875 289C210 295.875 202.75 300.25 194.75 300.25L134 300L140.375 231.25zM250 182.875C240.125 185.875 229.625 187.5 218.75 187.5C160.125 187.5 112.5 139.875 112.5 81.2500000000001C112.5 70.3750000000001 114.125 59.7500000000001 117.25 49.875L20.125 49.625C20 49.625 20 49.625 20 49.625C9.25 49.625 0.375 58.5 0.375 69.375L-0.125 212.25L115.5 212.5H134.25L249.875 212.875z" />
    <glyph glyph-name="012-approved-1"
      unicode="&#x30;&#x31;&#x32;&#x2D;&#x61;&#x70;&#x70;&#x72;&#x6F;&#x76;&#x65;&#x64;"
      horiz-adv-x="300" d="M218.75 162.5C173.95 162.5 137.5 126.05 137.5 81.25S173.95 0 218.75 0S300 36.45 300 81.25S263.55 162.5 218.75 162.5zM253.9625 96.9875L213.3375 50.1125C211.625 48.15 209.1875 46.975 206.5875 46.8875C206.475 46.8875 206.3625 46.8875 206.25 46.8875C203.7625 46.8875 201.375 47.875 199.625 49.6375L177.75 71.5125C174.0875 75.175 174.0875 81.1125 177.75 84.775S187.35 88.4375 191.0125 84.775L205.775 70.025L239.8 109.2875C243.1875 113.1875 249.1 113.625 253.025 110.2375C256.925 106.8125 257.35 100.9 253.9625 96.9875zM115.25 300L54.5 299.75C46.625 299.75 39.25 295.375 35.5 288.5L3.75 231L109.125 231.25zM246 231.5L213.875 289C210 295.875 202.75 300.25 194.75 300.25L134 300L140.375 231.25zM250 182.875C240.125 185.875 229.625 187.5 218.75 187.5C160.125 187.5 112.5 139.875 112.5 81.2500000000001C112.5 70.3750000000001 114.125 59.7500000000001 117.25 49.875L20.125 49.625C20 49.625 20 49.625 20 49.625C9.25 49.625 0.375 58.5 0.375 69.375L-0.125 212.25L115.5 212.5H134.25L249.875 212.875z" />
    <glyph glyph-name="013-giftbox"
      unicode="&#xF10D;"
      horiz-adv-x="300" d="M280.4349609375 241.566796875H258.59765625C261.478125 246.125390625 263.37890625 251.2423828125 263.9208984375 256.6541015625C265.65234375 273.94921875 256.5439453125 289.453125 241.037109375 296.3267578125C226.78359375 302.644921875 210.7658203125 300.062109375 199.231640625 289.60078125L171.657421875 264.610546875C166.2873046875 270.483984375 158.567578125 274.175390625 150 274.175390625C141.4171875 274.175390625 133.68515625 270.472265625 128.3138671875 264.5806640625L100.7044921875 289.6037109375C89.1515625 300.0650390625 73.140234375 302.637890625 58.8931640625 296.3232421875C43.3904296875 289.4490234375 34.2802734375 273.93984375 36.0169921875 256.6453125C36.56015625 251.2376953125 38.459765625 246.123046875 41.3396484375 241.566796875H19.5650390625C8.7591796875 241.566796875 0 232.80703125 0 222.0017578125V192.65390625C0 187.2515625 4.3798828125 182.87109375 9.7828125 182.87109375H290.2177734375C295.6201171875 182.87109375 300.0005859375 187.2509765625 300.0005859375 192.65390625V222.0017578125C300 232.80703125 291.2408203125 241.566796875 280.4349609375 241.566796875zM120.6521484375 244.8275390625V241.566796875H74.630859375C62.471484375 241.566796875 52.901953125 252.90234375 55.9388671875 265.562109375C57.2765625 271.1373046875 61.30078125 275.88984375 66.5056640625 278.295703125C73.6529296875 281.59921875 81.5701171875 280.538671875 87.573046875 275.1052734375L120.6603515625 245.1158203125C120.65859375 245.019140625 120.6521484375 244.92421875 120.6521484375 244.8275390625zM244.508203125 259.2515625C243.779296875 249.0837890625 234.5947265625 241.565625 224.401171875 241.565625H179.3478515625V244.8263671875C179.3478515625 244.941796875 179.3408203125 245.0560546875 179.3396484375 245.171484375C186.8349609375 251.966015625 203.0953125 266.703515625 211.9142578125 274.6974609375C216.9263671875 279.240234375 223.939453125 281.3607421875 230.422265625 279.4271484375C239.7251953125 276.6521484375 245.1884765625 268.7408203125 244.508203125 259.2515625zM19.5650390625 163.3060546875V19.8275390625C19.5650390625 9.0216796875 28.32421875 0.2625 39.130078125 0.2625H130.434375V163.3060546875H19.5650390625zM169.5650390625 163.3060546875V0.2625H260.8693359375C271.6751953125 0.2625 280.434375 9.0216796875 280.434375 19.8275390625V163.3060546875H169.5650390625z" />
    <glyph glyph-name="013-giftbox-1"
      unicode="&#x30;&#x31;&#x33;&#x2D;&#x67;&#x69;&#x66;&#x74;&#x62;&#x6F;&#x78;"
      horiz-adv-x="300" d="M280.4349609375 241.566796875H258.59765625C261.478125 246.125390625 263.37890625 251.2423828125 263.9208984375 256.6541015625C265.65234375 273.94921875 256.5439453125 289.453125 241.037109375 296.3267578125C226.78359375 302.644921875 210.7658203125 300.062109375 199.231640625 289.60078125L171.657421875 264.610546875C166.2873046875 270.483984375 158.567578125 274.175390625 150 274.175390625C141.4171875 274.175390625 133.68515625 270.472265625 128.3138671875 264.5806640625L100.7044921875 289.6037109375C89.1515625 300.0650390625 73.140234375 302.637890625 58.8931640625 296.3232421875C43.3904296875 289.4490234375 34.2802734375 273.93984375 36.0169921875 256.6453125C36.56015625 251.2376953125 38.459765625 246.123046875 41.3396484375 241.566796875H19.5650390625C8.7591796875 241.566796875 0 232.80703125 0 222.0017578125V192.65390625C0 187.2515625 4.3798828125 182.87109375 9.7828125 182.87109375H290.2177734375C295.6201171875 182.87109375 300.0005859375 187.2509765625 300.0005859375 192.65390625V222.0017578125C300 232.80703125 291.2408203125 241.566796875 280.4349609375 241.566796875zM120.6521484375 244.8275390625V241.566796875H74.630859375C62.471484375 241.566796875 52.901953125 252.90234375 55.9388671875 265.562109375C57.2765625 271.1373046875 61.30078125 275.88984375 66.5056640625 278.295703125C73.6529296875 281.59921875 81.5701171875 280.538671875 87.573046875 275.1052734375L120.6603515625 245.1158203125C120.65859375 245.019140625 120.6521484375 244.92421875 120.6521484375 244.8275390625zM244.508203125 259.2515625C243.779296875 249.0837890625 234.5947265625 241.565625 224.401171875 241.565625H179.3478515625V244.8263671875C179.3478515625 244.941796875 179.3408203125 245.0560546875 179.3396484375 245.171484375C186.8349609375 251.966015625 203.0953125 266.703515625 211.9142578125 274.6974609375C216.9263671875 279.240234375 223.939453125 281.3607421875 230.422265625 279.4271484375C239.7251953125 276.6521484375 245.1884765625 268.7408203125 244.508203125 259.2515625zM19.5650390625 163.3060546875V19.8275390625C19.5650390625 9.0216796875 28.32421875 0.2625 39.130078125 0.2625H130.434375V163.3060546875H19.5650390625zM169.5650390625 163.3060546875V0.2625H260.8693359375C271.6751953125 0.2625 280.434375 9.0216796875 280.434375 19.8275390625V163.3060546875H169.5650390625z" />
    <glyph glyph-name="014-car-compact"
      unicode="&#xF10E;"
      horiz-adv-x="300" d="M299.9959789565392 136.2081560164863C299.9959789565392 142.1090372951781 298.6636732232015 147.7451998793687 296.2577488858359 152.9015179439065C296.0097845390879 154.2123781121201 295.7263009751031 155.5212277586034 295.3717789766445 156.8488422745703L269.3127366551621 221.4301511242167L269.136480916798 222.0111919042992C260.0187648694836 249.1592668297423 247.0455383171933 274.2854270683242 214.1493817645679 274.2854270683242H88.3744931809805C54.6674261970981 274.2854270683242 42.7564252923634 248.5366752672319 33.4389974198304 222.1619810340783L6.181013973126 157.4231813155514C2.2403913815635 151.1094729082197 0 143.8870086787522 0 136.2081560164863V116.1123211473378C0 113.0053948999766 0.3672553027511 109.9661562175385 1.0655765171062 107.038836578092C0.3866903461448 105.2702476292598 0 103.364273028851 0 101.3550916462822V41.5856314713668C0 32.8210970746909 7.1051837951949 25.7145729316758 15.8697181918708 25.7145729316758H48.8020641356432C57.5619073149482 25.7145729316758 64.6670911101431 32.8210970746908 64.6670911101431 41.5856314713668V71.4747176892404H237.2100660121301V41.5856314713668C237.2100660121301 32.8210970746909 244.3165901551453 25.7145729316758 253.0817947257313 25.7145729316758H284.1282712863988C292.8961565526255 25.7145729316758 300 32.8210970746908 300 41.5856314713668V101.3617933853835C300 103.3636028549409 299.6092886103944 105.2782897161813 298.9357638307141 107.0408470998224C299.6314043494287 109.9728579566397 300 113.0087457695272 300 116.1150018429783V136.2074858425762H299.9959789565392zM52.7788761183527 215.6780484535737C63.1551787688905 244.9532553697685 71.4995141239152 253.8900244613477 88.3744931809805 253.8900244613477H214.1420098515565C230.8930067352478 253.8900244613477 240.2204872164327 243.922527895989 249.6987568273967 215.8040411486781L268.7149415273263 177.2677009684013C262.5057802499749 179.5670676540563 255.6726870622926 180.8430787789432 248.4937841369835 180.8430787789432H51.5021948195557C45.0383674563549 180.8430787789432 38.8613745266897 179.8036390443321 33.1622155949469 177.922460878598L52.7788761183527 215.6780484535737zM69.1143651777636 108.480380658781H34.3671882853601C28.1111148342995 108.480380658781 23.0372281607077 113.5589585497436 23.0372281607077 119.8143618268941C23.0372281607077 126.0717756257749 28.1111148342995 131.1470026471869 34.3671882853601 131.1470026471869H69.1143651777636C75.3731193244647 131.1470026471869 80.4470059980565 126.0717756257749 80.4470059980565 119.8143618268941C80.4470059980565 113.5589585497437 75.3697684549141 108.480380658781 69.1143651777636 108.480380658781zM191.8600676875649 110.7502596923902H111.0370941259257C107.0743557953289 110.7502596923902 103.8635525918976 113.9630734175519 103.8635525918976 117.9238012264183C103.8635525918976 121.8919009482961 107.0743557953289 125.1033743256375 111.0370941259257 125.1033743256375H191.8600676875649C195.8274972355326 125.1033743256375 199.0376302650538 121.8919009482961 199.0376302650538 117.9238012264183C199.0376302650538 113.9630734175519 195.8274972355326 110.7502596923902 191.8600676875649 110.7502596923902zM264.7528733706397 108.480380658781H230.0070368260564C223.7456019837148 108.480380658781 218.6743960057635 113.5589585497436 218.6743960057635 119.8143618268941C218.6743960057635 126.0717756257749 223.7496230271755 131.1470026471869 230.0070368260564 131.1470026471869H264.7528733706397C271.0143082129813 131.1470026471869 276.0895352343934 126.0717756257749 276.0895352343934 119.8143618268941C276.0895352343934 113.5589585497437 271.0143082129813 108.480380658781 264.7528733706397 108.480380658781z" />
    <glyph glyph-name="014-car-compact-1"
      unicode="&#x30;&#x31;&#x34;&#x2D;&#x63;&#x61;&#x72;&#x2D;&#x63;&#x6F;&#x6D;&#x70;&#x61;&#x63;&#x74;"
      horiz-adv-x="300" d="M299.9959789565392 136.2081560164863C299.9959789565392 142.1090372951781 298.6636732232015 147.7451998793687 296.2577488858359 152.9015179439065C296.0097845390879 154.2123781121201 295.7263009751031 155.5212277586034 295.3717789766445 156.8488422745703L269.3127366551621 221.4301511242167L269.136480916798 222.0111919042992C260.0187648694836 249.1592668297423 247.0455383171933 274.2854270683242 214.1493817645679 274.2854270683242H88.3744931809805C54.6674261970981 274.2854270683242 42.7564252923634 248.5366752672319 33.4389974198304 222.1619810340783L6.181013973126 157.4231813155514C2.2403913815635 151.1094729082197 0 143.8870086787522 0 136.2081560164863V116.1123211473378C0 113.0053948999766 0.3672553027511 109.9661562175385 1.0655765171062 107.038836578092C0.3866903461448 105.2702476292598 0 103.364273028851 0 101.3550916462822V41.5856314713668C0 32.8210970746909 7.1051837951949 25.7145729316758 15.8697181918708 25.7145729316758H48.8020641356432C57.5619073149482 25.7145729316758 64.6670911101431 32.8210970746908 64.6670911101431 41.5856314713668V71.4747176892404H237.2100660121301V41.5856314713668C237.2100660121301 32.8210970746909 244.3165901551453 25.7145729316758 253.0817947257313 25.7145729316758H284.1282712863988C292.8961565526255 25.7145729316758 300 32.8210970746908 300 41.5856314713668V101.3617933853835C300 103.3636028549409 299.6092886103944 105.2782897161813 298.9357638307141 107.0408470998224C299.6314043494287 109.9728579566397 300 113.0087457695272 300 116.1150018429783V136.2074858425762H299.9959789565392zM52.7788761183527 215.6780484535737C63.1551787688905 244.9532553697685 71.4995141239152 253.8900244613477 88.3744931809805 253.8900244613477H214.1420098515565C230.8930067352478 253.8900244613477 240.2204872164327 243.922527895989 249.6987568273967 215.8040411486781L268.7149415273263 177.2677009684013C262.5057802499749 179.5670676540563 255.6726870622926 180.8430787789432 248.4937841369835 180.8430787789432H51.5021948195557C45.0383674563549 180.8430787789432 38.8613745266897 179.8036390443321 33.1622155949469 177.922460878598L52.7788761183527 215.6780484535737zM69.1143651777636 108.480380658781H34.3671882853601C28.1111148342995 108.480380658781 23.0372281607077 113.5589585497436 23.0372281607077 119.8143618268941C23.0372281607077 126.0717756257749 28.1111148342995 131.1470026471869 34.3671882853601 131.1470026471869H69.1143651777636C75.3731193244647 131.1470026471869 80.4470059980565 126.0717756257749 80.4470059980565 119.8143618268941C80.4470059980565 113.5589585497437 75.3697684549141 108.480380658781 69.1143651777636 108.480380658781zM191.8600676875649 110.7502596923902H111.0370941259257C107.0743557953289 110.7502596923902 103.8635525918976 113.9630734175519 103.8635525918976 117.9238012264183C103.8635525918976 121.8919009482961 107.0743557953289 125.1033743256375 111.0370941259257 125.1033743256375H191.8600676875649C195.8274972355326 125.1033743256375 199.0376302650538 121.8919009482961 199.0376302650538 117.9238012264183C199.0376302650538 113.9630734175519 195.8274972355326 110.7502596923902 191.8600676875649 110.7502596923902zM264.7528733706397 108.480380658781H230.0070368260564C223.7456019837148 108.480380658781 218.6743960057635 113.5589585497436 218.6743960057635 119.8143618268941C218.6743960057635 126.0717756257749 223.7496230271755 131.1470026471869 230.0070368260564 131.1470026471869H264.7528733706397C271.0143082129813 131.1470026471869 276.0895352343934 126.0717756257749 276.0895352343934 119.8143618268941C276.0895352343934 113.5589585497437 271.0143082129813 108.480380658781 264.7528733706397 108.480380658781z" />
    <glyph glyph-name="015-calendar"
      unicode="&#xF10F;"
      horiz-adv-x="300" d="M109.3024303905341 134.4915108408857C109.3024303905341 138.249561611957 106.2541995116275 141.2941051148004 102.4930759271702 141.2941051148004H78.7310100132746C74.9741883675577 141.2941051148004 71.9253429259739 138.249561611957 71.9253429259739 134.4915108408857V110.732517740376C71.9253429259739 106.9695504678871 74.9741883675577 103.9237778396893 78.7310100132746 103.9237778396893H102.4930759271702C106.2541995116275 103.9237778396893 109.3024303905341 106.9695504678871 109.3024303905341 110.732517740376V134.4915108408857L109.3024303905341 134.4915108408857zM168.6870073255871 134.4915108408857C168.6870073255871 138.249561611957 165.6381618840033 141.2941051148004 161.8844130516724 141.2941051148004H138.1192743243908C134.3624526786738 141.2941051148004 131.3136072370901 138.249561611957 131.3136072370901 134.4915108408857V110.732517740376C131.3136072370901 106.9695504678871 134.3624526786738 103.9237778396893 138.1192743243908 103.9237778396893H161.8844130516724C165.6381618840033 103.9237778396893 168.6870073255871 106.9695504678871 168.6870073255871 110.732517740376V134.4915108408857zM228.0746570740262 134.4915108408857C228.0746570740262 138.249561611957 225.0258116324424 141.2941051148004 221.2689899867255 141.2941051148004H197.5069240728298C193.7458004883725 141.2941051148004 190.6975696094659 138.249561611957 190.6975696094659 134.4915108408857V110.732517740376C190.6975696094659 106.9695504678871 193.7458004883725 103.9237778396893 197.5069240728298 103.9237778396893H221.2689899867255C225.0258116324424 103.9237778396893 228.0746570740262 106.9695504678871 228.0746570740262 110.732517740376V134.4915108408857zM109.3024303905341 75.1007882790607C109.3024303905341 78.8649846769039 106.2541995116275 81.9070699290385 102.4930759271702 81.9070699290385H78.7310100132746C74.9741883675577 81.9070699290385 71.9253429259739 78.8649846769039 71.9253429259739 75.1007882790607V51.3460971172914C71.9253429259739 47.5855880955113 74.9741883675577 44.5404300299907 78.7310100132746 44.5404300299907H102.4930759271702C106.2541995116275 44.5404300299907 109.3024303905341 47.5862026581885 109.3024303905341 51.3460971172914V75.1007882790607L109.3024303905341 75.1007882790607zM168.6870073255871 75.1007882790607C168.6870073255871 78.8649846769039 165.6381618840033 81.9070699290385 161.8844130516724 81.9070699290385H138.1192743243908C134.3624526786738 81.9070699290385 131.3136072370901 78.8649846769039 131.3136072370901 75.1007882790607V51.3460971172914C131.3136072370901 47.5855880955113 134.3624526786738 44.5404300299907 138.1192743243908 44.5404300299907H161.8844130516724C165.6381618840033 44.5404300299907 168.6870073255871 47.5862026581885 168.6870073255871 51.3460971172914V75.1007882790607zM228.0746570740262 75.1007882790607C228.0746570740262 78.8649846769039 225.0258116324424 81.9070699290385 221.2720628001114 81.9070699290385H197.5069240728298C193.7458004883725 81.9070699290385 190.6975696094659 78.8649846769039 190.6975696094659 75.1007882790607V51.3460971172914C190.6975696094659 47.5855880955113 193.7458004883725 44.5404300299907 197.5069240728298 44.5404300299907H221.2720628001114C225.0258116324424 44.5404300299907 228.0746570740262 47.5862026581885 228.0746570740262 51.3460971172914V75.1007882790607L228.0746570740262 75.1007882790607zM270.5636768875268 266.5960602435307V230.3061341549354C270.5636768875268 213.9034563004966 257.2571658008162 200.6854422393025 240.8569461970862 200.6854422393025H222.1170864812599C205.7156377521756 200.6854422393025 192.2327471771088 213.9034563004966 192.2327471771088 230.3061341549354V266.7263475310969H107.7672528228912V230.3061341549354C107.7672528228912 213.9034563004966 94.2849768105017 200.6854422393025 77.8859863321261 200.6854422393025H59.1424392402366C42.7428341991839 200.6854422393025 29.4369376751504 213.9034563004966 29.4369376751504 230.3061341549354V266.5960602435307C15.1034923548403 266.1640226814599 3.3253986463233 254.3035775741982 3.3253986463233 239.725536308363V27.0493616742327C3.3253986463233 12.1972254543667 15.3634523672954 -0.0006145626772 30.2155885871614 -0.0006145626772H269.7844114128386C284.6144233763254 -0.0006145626772 296.6746013536767 12.2224225241318 296.6746013536767 27.0493616742327V239.725536308363C296.6746013536767 254.3035775741982 284.8971222078369 266.1640226814599 270.5636768875268 266.5960602435307zM261.8596256903587 40.2931873678691C261.8596256903587 33.8746947672037 256.6555089398384 28.6675052032974 250.2345580884643 28.6675052032974H49.2535112014291C42.8325603500549 28.6675052032974 37.6284435995346 33.8746947672037 37.6284435995346 40.2931873678691V150.148109605205C37.6284435995346 156.5690604565791 42.8319457873777 161.7762500204854 49.2535112014291 161.7762500204854H250.2339435257871C256.6548943771612 161.7762500204854 261.8590111276816 156.5690604565791 261.8590111276816 150.148109605205L261.8596256903587 40.2931873678691L261.8596256903587 40.2931873678691zM59.0766810337764 220.1406529113883H77.6131205034497C83.2394418132057 220.1406529113883 87.8013405660532 224.6957914747866 87.8013405660532 230.3221127845426V289.8148527507826C87.8013405660532 295.4417886232157 83.2394418132057 300 77.6131205034498 300H59.0766810337764C53.4497451613432 300 48.8884609711729 295.4417886232157 48.8884609711729 289.8148527507826V230.3221127845426C48.8884609711729 224.6957914747866 53.4497451613432 220.1406529113883 59.0766810337764 220.1406529113883zM221.8786361625068 220.1406529113883H240.4150756321802C246.0377095658729 220.1406529113883 250.5996083187204 224.6957914747866 250.5996083187204 230.3221127845426V289.8148527507826C250.6002228813976 295.4417886232157 246.0383241285501 300 240.4150756321802 300H221.8786361625068C216.252929415428 300 211.6910306625805 295.4417886232157 211.6910306625805 289.8148527507826V230.3221127845426C211.6910306625805 224.6957914747866 216.252929415428 220.1406529113883 221.8786361625068 220.1406529113883z" />
    <glyph glyph-name="015-calendar-1"
      unicode="&#x30;&#x31;&#x35;&#x2D;&#x63;&#x61;&#x6C;&#x65;&#x6E;&#x64;&#x61;&#x72;"
      horiz-adv-x="300" d="M109.3024303905341 134.4915108408857C109.3024303905341 138.249561611957 106.2541995116275 141.2941051148004 102.4930759271702 141.2941051148004H78.7310100132746C74.9741883675577 141.2941051148004 71.9253429259739 138.249561611957 71.9253429259739 134.4915108408857V110.732517740376C71.9253429259739 106.9695504678871 74.9741883675577 103.9237778396893 78.7310100132746 103.9237778396893H102.4930759271702C106.2541995116275 103.9237778396893 109.3024303905341 106.9695504678871 109.3024303905341 110.732517740376V134.4915108408857L109.3024303905341 134.4915108408857zM168.6870073255871 134.4915108408857C168.6870073255871 138.249561611957 165.6381618840033 141.2941051148004 161.8844130516724 141.2941051148004H138.1192743243908C134.3624526786738 141.2941051148004 131.3136072370901 138.249561611957 131.3136072370901 134.4915108408857V110.732517740376C131.3136072370901 106.9695504678871 134.3624526786738 103.9237778396893 138.1192743243908 103.9237778396893H161.8844130516724C165.6381618840033 103.9237778396893 168.6870073255871 106.9695504678871 168.6870073255871 110.732517740376V134.4915108408857zM228.0746570740262 134.4915108408857C228.0746570740262 138.249561611957 225.0258116324424 141.2941051148004 221.2689899867255 141.2941051148004H197.5069240728298C193.7458004883725 141.2941051148004 190.6975696094659 138.249561611957 190.6975696094659 134.4915108408857V110.732517740376C190.6975696094659 106.9695504678871 193.7458004883725 103.9237778396893 197.5069240728298 103.9237778396893H221.2689899867255C225.0258116324424 103.9237778396893 228.0746570740262 106.9695504678871 228.0746570740262 110.732517740376V134.4915108408857zM109.3024303905341 75.1007882790607C109.3024303905341 78.8649846769039 106.2541995116275 81.9070699290385 102.4930759271702 81.9070699290385H78.7310100132746C74.9741883675577 81.9070699290385 71.9253429259739 78.8649846769039 71.9253429259739 75.1007882790607V51.3460971172914C71.9253429259739 47.5855880955113 74.9741883675577 44.5404300299907 78.7310100132746 44.5404300299907H102.4930759271702C106.2541995116275 44.5404300299907 109.3024303905341 47.5862026581885 109.3024303905341 51.3460971172914V75.1007882790607L109.3024303905341 75.1007882790607zM168.6870073255871 75.1007882790607C168.6870073255871 78.8649846769039 165.6381618840033 81.9070699290385 161.8844130516724 81.9070699290385H138.1192743243908C134.3624526786738 81.9070699290385 131.3136072370901 78.8649846769039 131.3136072370901 75.1007882790607V51.3460971172914C131.3136072370901 47.5855880955113 134.3624526786738 44.5404300299907 138.1192743243908 44.5404300299907H161.8844130516724C165.6381618840033 44.5404300299907 168.6870073255871 47.5862026581885 168.6870073255871 51.3460971172914V75.1007882790607zM228.0746570740262 75.1007882790607C228.0746570740262 78.8649846769039 225.0258116324424 81.9070699290385 221.2720628001114 81.9070699290385H197.5069240728298C193.7458004883725 81.9070699290385 190.6975696094659 78.8649846769039 190.6975696094659 75.1007882790607V51.3460971172914C190.6975696094659 47.5855880955113 193.7458004883725 44.5404300299907 197.5069240728298 44.5404300299907H221.2720628001114C225.0258116324424 44.5404300299907 228.0746570740262 47.5862026581885 228.0746570740262 51.3460971172914V75.1007882790607L228.0746570740262 75.1007882790607zM270.5636768875268 266.5960602435307V230.3061341549354C270.5636768875268 213.9034563004966 257.2571658008162 200.6854422393025 240.8569461970862 200.6854422393025H222.1170864812599C205.7156377521756 200.6854422393025 192.2327471771088 213.9034563004966 192.2327471771088 230.3061341549354V266.7263475310969H107.7672528228912V230.3061341549354C107.7672528228912 213.9034563004966 94.2849768105017 200.6854422393025 77.8859863321261 200.6854422393025H59.1424392402366C42.7428341991839 200.6854422393025 29.4369376751504 213.9034563004966 29.4369376751504 230.3061341549354V266.5960602435307C15.1034923548403 266.16402268146 3.3253986463233 254.3035775741982 3.3253986463233 239.725536308363V27.0493616742327C3.3253986463233 12.1972254543667 15.3634523672954 -0.0006145626772 30.2155885871614 -0.0006145626772H269.7844114128386C284.6144233763254 -0.0006145626772 296.6746013536767 12.2224225241318 296.6746013536767 27.0493616742327V239.725536308363C296.6746013536767 254.3035775741982 284.8971222078369 266.16402268146 270.5636768875268 266.5960602435307zM261.8596256903587 40.2931873678691C261.8596256903587 33.8746947672037 256.6555089398384 28.6675052032974 250.2345580884643 28.6675052032974H49.2535112014291C42.8325603500549 28.6675052032974 37.6284435995346 33.8746947672037 37.6284435995346 40.2931873678691V150.148109605205C37.6284435995346 156.5690604565791 42.8319457873777 161.7762500204854 49.2535112014291 161.7762500204854H250.2339435257871C256.6548943771612 161.7762500204854 261.8590111276816 156.5690604565791 261.8590111276816 150.148109605205L261.8596256903587 40.2931873678691L261.8596256903587 40.2931873678691zM59.0766810337764 220.1406529113883H77.6131205034497C83.2394418132057 220.1406529113883 87.8013405660532 224.6957914747866 87.8013405660532 230.3221127845426V289.8148527507826C87.8013405660532 295.4417886232157 83.2394418132057 300 77.6131205034498 300H59.0766810337764C53.4497451613432 300 48.8884609711729 295.4417886232157 48.8884609711729 289.8148527507826V230.3221127845426C48.8884609711729 224.6957914747866 53.4497451613432 220.1406529113883 59.0766810337764 220.1406529113883zM221.8786361625068 220.1406529113883H240.4150756321802C246.0377095658729 220.1406529113883 250.5996083187204 224.6957914747866 250.5996083187204 230.3221127845426V289.8148527507826C250.6002228813976 295.4417886232157 246.0383241285501 300 240.4150756321802 300H221.8786361625068C216.252929415428 300 211.6910306625805 295.4417886232157 211.6910306625805 289.8148527507826V230.3221127845426C211.6910306625805 224.6957914747866 216.252929415428 220.1406529113883 221.8786361625068 220.1406529113883z" />
    <glyph glyph-name="016-whatsapp"
      unicode="&#xF110;"
      horiz-adv-x="300" d="M150.0375 300H149.9625C67.25625 300 0 232.725 0 150C0 117.1875 10.575 86.775 28.55625 62.08125L9.8625 6.35625L67.51875 24.7875C91.2375 9.075 119.53125 0 150.0375 0C232.74375 0 300 67.29375 300 150S232.74375 300 150.0375 300zM237.31875 88.18125C233.7 77.9625 219.3375 69.4875 207.88125 67.0125C200.04375 65.34375 189.80625 64.0125 155.34375 78.3C111.2625 96.5625 82.875 141.35625 80.6625 144.2625C78.54375 147.16875 62.85 167.98125 62.85 189.50625S73.78125 221.5125 78.1875 226.0125C81.80625 229.70625 87.7875 231.39375 93.525 231.39375C95.38125 231.39375 97.05 231.3 98.55 231.225C102.95625 231.0375 105.16875 230.7750000000001 108.075 223.81875C111.69375 215.1 120.50625 193.5750000000001 121.55625 191.3625C122.625 189.15 123.69375 186.15 122.19375 183.24375C120.7875 180.24375 119.55 178.9125 117.3375 176.3625C115.125 173.8125 113.025 171.8625 110.8125 169.125C108.7875 166.74375 106.5 164.19375 109.05 159.7875C111.6 155.475 120.4125 141.09375 133.3875 129.54375C150.13125 114.6375 163.70625 109.875 168.5625 107.85C172.18125 106.35 176.49375 106.70625 179.1375 109.51875C182.49375 113.1375 186.6375 119.1375 190.85625 125.04375C193.85625 129.28125 197.64375 129.80625 201.61875 128.30625C205.66875 126.9 227.1 116.30625 231.50625 114.1125C235.9125 111.9 238.81875 110.85 239.8875 108.99375C240.9375 107.1375 240.9375 98.41875 237.31875 88.18125z" />
    <glyph glyph-name="016-whatsapp-1"
      unicode="&#x30;&#x31;&#x36;&#x2D;&#x77;&#x68;&#x61;&#x74;&#x73;&#x61;&#x70;&#x70;"
      horiz-adv-x="300" d="M150.0375 300H149.9625C67.25625 300 0 232.725 0 150C0 117.1875 10.575 86.775 28.55625 62.08125L9.8625 6.35625L67.51875 24.7875C91.2375 9.075 119.53125 0 150.0375 0C232.74375 0 300 67.29375 300 150S232.74375 300 150.0375 300zM237.31875 88.18125C233.7 77.9625 219.3375 69.4875 207.88125 67.0125C200.04375 65.34375 189.80625 64.0125 155.34375 78.3C111.2625 96.5625 82.875 141.35625 80.6625 144.2625C78.54375 147.16875 62.85 167.98125 62.85 189.50625S73.78125 221.5125 78.1875 226.0125C81.80625 229.70625 87.7875 231.39375 93.525 231.39375C95.38125 231.39375 97.05 231.3 98.55 231.225C102.95625 231.0375 105.16875 230.7750000000001 108.075 223.81875C111.69375 215.1 120.50625 193.5750000000001 121.55625 191.3625C122.625 189.15 123.69375 186.15 122.19375 183.24375C120.7875 180.24375 119.55 178.9125 117.3375 176.3625C115.125 173.8125 113.025 171.8625 110.8125 169.125C108.7875 166.74375 106.5 164.19375 109.05 159.7875C111.6 155.475 120.4125 141.09375 133.3875 129.54375C150.13125 114.6375 163.70625 109.875 168.5625 107.85C172.18125 106.35 176.49375 106.70625 179.1375 109.51875C182.49375 113.1375 186.6375 119.1375 190.85625 125.04375C193.85625 129.28125 197.64375 129.80625 201.61875 128.30625C205.66875 126.9 227.1 116.30625 231.50625 114.1125C235.9125 111.9 238.81875 110.85 239.8875 108.99375C240.9375 107.1375 240.9375 98.41875 237.31875 88.18125z" />
    <glyph glyph-name="017-mail"
      unicode="&#xF111;"
      horiz-adv-x="300" d="M297.357421875 240.3978515625L206.3736328125 150L297.357421875 59.6021484375C299.0021484375 63.03984375 300 66.840234375 300 70.8984375V229.1015625C300 233.1603515625 299.0021484375 236.96015625 297.357421875 240.3978515625zM273.6328125 255.46875H26.3671875C22.3083984375 255.46875 18.50859375 254.4708984375 15.0708984375 252.826171875L131.3578125 137.1251953125C141.63984375 126.8431640625 158.36015625 126.8431640625 168.6421875 137.1251953125L284.9291015625 252.826171875C281.49140625 254.4708984375 277.6916015625 255.46875 273.6328125 255.46875zM2.642578125 240.3978515625C0.9978515625 236.96015625 0 233.1603515625 0 229.1015625V70.8984375C0 66.8396484375 0.9978515625 63.0392578125 2.642578125 59.6021484375L93.6263671875 150L2.642578125 240.3978515625zM193.9453125 137.5716796875L181.0705078125 124.696875C163.93828125 107.5646484375 136.0611328125 107.5646484375 118.92890625 124.696875L106.0546875 137.5716796875L15.0708984375 47.173828125C18.50859375 45.5291015625 22.3083984375 44.53125 26.3671875 44.53125H273.6328125C277.6916015625 44.53125 281.49140625 45.5291015625 284.9291015625 47.173828125L193.9453125 137.5716796875z" />
    <glyph glyph-name="017-mail-1"
      unicode="&#x30;&#x31;&#x37;&#x2D;&#x6D;&#x61;&#x69;&#x6C;"
      horiz-adv-x="300" d="M297.357421875 240.3978515625L206.3736328125 150L297.357421875 59.6021484375C299.0021484375 63.03984375 300 66.840234375 300 70.8984375V229.1015625C300 233.1603515625 299.0021484375 236.96015625 297.357421875 240.3978515625zM273.6328125 255.46875H26.3671875C22.3083984375 255.46875 18.50859375 254.4708984375 15.0708984375 252.826171875L131.3578125 137.1251953125C141.63984375 126.8431640625 158.36015625 126.8431640625 168.6421875 137.1251953125L284.9291015625 252.826171875C281.49140625 254.4708984375 277.6916015625 255.46875 273.6328125 255.46875zM2.642578125 240.3978515625C0.9978515625 236.96015625 0 233.1603515625 0 229.1015625V70.8984375C0 66.8396484375 0.9978515625 63.0392578125 2.642578125 59.6021484375L93.6263671875 150L2.642578125 240.3978515625zM193.9453125 137.5716796875L181.0705078125 124.696875C163.93828125 107.5646484375 136.0611328125 107.5646484375 118.92890625 124.696875L106.0546875 137.5716796875L15.0708984375 47.173828125C18.50859375 45.5291015625 22.3083984375 44.53125 26.3671875 44.53125H273.6328125C277.6916015625 44.53125 281.49140625 45.5291015625 284.9291015625 47.173828125L193.9453125 137.5716796875z" />
    <glyph glyph-name="018-placeholder"
      unicode="&#xF112;"
      horiz-adv-x="300" d="M147.4534917888563 290.7624633431085C93.4956928152493 290.7624633431085 49.5967741935484 246.9064162581101 49.5967741935484 193.0013122900229C49.5967741935484 125.2482858460345 147.5497161290323 9.5124729561453 147.5497161290323 9.5124729561453S245.3102089442816 128.5802329489465 245.3102089442816 193.0013122900229C245.3102089442816 246.9064162581102 201.4130085043989 290.7624633431085 147.4534917888563 290.7624633431085zM176.9788992668622 164.3767789910567C168.8376329912024 156.245179952586 158.1464212609971 152.1785217419737 147.4534917888563 152.1785217419737C136.7622800586511 152.1785217419737 126.0676319648094 156.245179952586 117.929802052786 164.3767789910567C101.6489872434018 180.6399770679982 101.6489872434018 207.1032940345841 117.929802052786 223.3682090548262C125.8133247800587 231.2474657679376 136.3000596774194 235.5870652289864 147.4534917888563 235.5870652289864C158.6069234604106 235.5870652289864 169.0919401759531 231.24574926409 176.9788992668622 223.3682090548262C193.2597140762463 207.1032940345841 193.2597140762463 180.6399770679982 176.9788992668622 164.3767789910567zM176.9788992668622 164.3767789910567" />
    <glyph glyph-name="018-placeholder-1"
      unicode="&#x30;&#x31;&#x38;&#x2D;&#x70;&#x6C;&#x61;&#x63;&#x65;&#x68;&#x6F;&#x6C;&#x64;&#x65;&#x72;"
      horiz-adv-x="300" d="M147.4534917888563 290.7624633431085C93.4956928152493 290.7624633431085 49.5967741935484 246.9064162581101 49.5967741935484 193.0013122900229C49.5967741935484 125.2482858460345 147.5497161290323 9.5124729561453 147.5497161290323 9.5124729561453S245.3102089442816 128.5802329489465 245.3102089442816 193.0013122900229C245.3102089442816 246.9064162581102 201.4130085043989 290.7624633431085 147.4534917888563 290.7624633431085zM176.9788992668622 164.3767789910567C168.8376329912024 156.245179952586 158.1464212609971 152.1785217419737 147.4534917888563 152.1785217419737C136.7622800586511 152.1785217419737 126.0676319648094 156.245179952586 117.929802052786 164.3767789910567C101.6489872434018 180.6399770679982 101.6489872434018 207.1032940345841 117.929802052786 223.3682090548262C125.8133247800587 231.2474657679376 136.3000596774194 235.5870652289864 147.4534917888563 235.5870652289864C158.6069234604106 235.5870652289864 169.0919401759531 231.24574926409 176.9788992668622 223.3682090548262C193.2597140762463 207.1032940345841 193.2597140762463 180.6399770679982 176.9788992668622 164.3767789910567zM176.9788992668622 164.3767789910567" />
    <glyph glyph-name="019-facebook-circular-logo"
      unicode="&#xF113;"
      horiz-adv-x="300" d="M150.0008946837889 299.3755107153296C67.1585439319563 299.3755107153296 0 232.2169667833732 0 149.3746160315406C0 75.0747060963754 54.0782669378553 13.541933829187 124.9837465778345 1.6265351282678V118.08036646248H88.7991554185033V159.9873551357832H124.9837465778345V190.8879438377163C124.9837465778345 226.7415019951449 146.8820269955922 246.2796065777152 178.8705511848596 246.2796065777152C194.1911163864318 246.2796065777152 207.3572830242698 245.1379900630454 211.1793721705625 244.6351777736689V207.1586632231282L188.9930035727706 207.1479270176611C171.6003507160452 207.1479270176611 168.2470758751499 198.8846275431387 168.2470758751499 186.7545047328773V160.0088275467174H209.7478781082806L204.3350411852771 118.1018388734142H168.2470758751499V0.6244892846705C242.4628855341561 9.6572168176695 300 72.7574750830565 300 149.4175608534091C300 232.2169667833732 232.8414560680437 299.3755107153296 150.0008946837889 299.3755107153296z" />
    <glyph glyph-name="019-facebook-circular-logo-1"
      unicode="&#x30;&#x31;&#x39;&#x2D;&#x66;&#x61;&#x63;&#x65;&#x62;&#x6F;&#x6F;&#x6B;&#x2D;&#x63;&#x69;&#x72;&#x63;&#x75;&#x6C;&#x61;&#x72;&#x2D;&#x6C;&#x6F;&#x67;&#x6F;"
      horiz-adv-x="300" d="M150.0008946837889 299.3755107153296C67.1585439319563 299.3755107153296 0 232.2169667833732 0 149.3746160315406C0 75.0747060963754 54.0782669378553 13.541933829187 124.9837465778345 1.6265351282678V118.08036646248H88.7991554185033V159.9873551357832H124.9837465778345V190.8879438377163C124.9837465778345 226.7415019951449 146.8820269955922 246.2796065777152 178.8705511848596 246.2796065777152C194.1911163864318 246.2796065777152 207.3572830242698 245.1379900630454 211.1793721705625 244.6351777736689V207.1586632231282L188.9930035727706 207.1479270176611C171.6003507160452 207.1479270176611 168.2470758751499 198.8846275431387 168.2470758751499 186.7545047328773V160.0088275467174H209.7478781082806L204.3350411852771 118.1018388734142H168.2470758751499V0.6244892846705C242.4628855341561 9.6572168176695 300 72.7574750830565 300 149.4175608534091C300 232.2169667833732 232.8414560680437 299.3755107153296 150.0008946837889 299.3755107153296z" />
    <glyph glyph-name="020-instagram"
      unicode="&#xF114;"
      horiz-adv-x="300" d="M178.7109375 150C178.7109375 134.14306640625 165.85693359375 121.2890625 150 121.2890625S121.2890625 134.14306640625 121.2890625 150S134.14306640625 178.7109375 150 178.7109375S178.7109375 165.85693359375 178.7109375 150zM178.7109375 150M217.144775390625 200.798034375C215.7646177734375 204.5379638671875 213.5627748046875 207.9231263671875 210.7017515625 210.7017515625C207.9231263671875 213.5627748046875 204.5402525390625 215.7646177734375 200.7980343750001 217.144775390625C197.7630615234375 218.3235169921875 193.2037353515625 219.7265625 184.8060609375 220.1087953125C175.7217410156251 220.5230712890625 172.9980468750001 220.6123353515625 150.0000000000001 220.6123353515625C126.9996644531251 220.6123353515625 124.2759703125001 220.5253599609375 115.1939390625001 220.111083984375C106.7962646484376 219.7265625 102.2346498046876 218.3235169921875 99.2019656250001 217.144775390625C95.4597474609376 215.7646177734375 92.0745849609376 213.5627748046875 89.2982484375001 210.7017515625C86.4372251953126 207.9231263671875 84.2353822265626 204.5402525390625 82.8529359375001 200.798034375C81.6741943359376 197.7630615234375 80.2711488281251 193.2014466796875 79.8889160156251 184.803772265625C79.4746400390626 175.721741015625 79.3853759765626 172.998046875 79.3853759765626 149.997711328125C79.3853759765626 126.999664453125 79.4746400390626 124.2759703125 79.8889160156251 115.191650390625C80.2711488281251 106.7939759765625 81.6741943359376 102.2346498046875 82.8529359375001 99.1996763671875C84.2353822265626 95.457458203125 86.4349365234376 92.0745849609375 89.2959597656251 89.295959765625C92.0745849609376 86.4349365234375 95.4574582031251 84.23309296875 99.1996763671876 82.8529359375C102.2346498046876 81.6719056640625 106.7962646484376 80.2688601562501 115.1939390625001 79.88662734375C124.2759703125001 79.47235078125 126.9973757812501 79.3853759765625 149.9977113281251 79.3853759765625C173.0003355468751 79.3853759765625 175.7240296875 79.47235078125 184.8037722656251 79.88662734375C193.2014466796875 80.2688601562501 197.7630615234376 81.6719056640625 200.7980343750001 82.8529359375C208.3099365234376 85.7505796875001 214.2471316406251 91.6877748046875 217.1447753906251 99.1996763671876C218.3235169921876 102.2346498046875 219.7265625000001 106.7939759765625 220.1110839843751 115.1916503906251C220.5253599609376 124.2759703125001 220.6123353515626 126.999664453125 220.6123353515626 149.997711328125C220.6123353515626 172.9980468750001 220.5253599609376 175.7217410156251 220.1110839843751 184.8037722656251C219.7288511718751 193.2014466796875 218.3258056640626 197.7630615234376 217.1447753906251 200.7980343750001zM150 105.7708740234375C125.571441796875 105.7708740234375 105.7685853515625 125.571441796875 105.7685853515625 150S125.571441796875 194.2291259765625 150 194.2291259765625C174.42626953125 194.2291259765625 194.2291259765625 174.428558203125 194.2291259765625 150S174.42626953125 105.7708740234375 150 105.7708740234375zM195.977783203125 185.6414794921875C190.269469921875 185.6414794921875 185.6414794921875 190.269469921875 185.6414794921875 195.977783203125S190.269469921875 206.3140869140625 195.977783203125 206.3140869140625S206.3140869140625 201.686096484375 206.3140869140625 195.977783203125C206.3117982421875 190.269469921875 201.686096484375 185.6414794921875 195.977783203125 185.6414794921875zM195.977783203125 185.6414794921875M150 300C67.1699525390625 300 0 232.8300474609375 0 150S67.1699525390625 0 150 0S300 67.1699525390625 300 150S232.8300474609375 300 150 300zM235.6132505859375 114.4889830078125C235.1966859375 105.319976953125 233.738708203125 99.06005859375 231.6101074218751 93.580627734375C227.1354673828125 82.01065078125 217.98934921875 72.8645326171875 206.4193722656251 68.389892578125C200.942230078125 66.261291796875 194.680023046875 64.805602734375 185.5133056640625 64.3867494140625C176.328277734375 63.9678955078125 173.3940123046875 63.8671875 150.002288671875 63.8671875C126.6082763671875 63.8671875 123.6763001953125 63.9678955078125 114.4889830078125 64.3867494140625C105.322265625 64.805602734375 99.06005859375 66.261291796875 93.58291640625 68.389892578125C87.8334046875 70.55282578125 82.6286314453125 73.942565625 78.3256529296875 78.3256529296875C73.9448548828125 82.6263427734375 70.555114453125 87.8334046875 68.39218125 93.580627734375C66.26358046875 99.057769921875 64.805602734375 105.319976953125 64.3890380859375 114.4866943359375C63.9656068359375 123.6740109375 63.8671875 126.6082763671875 63.8671875 150S63.9656068359375 176.3259890625 64.3867494140625 185.5110169921875C64.8033140625 194.680023046875 66.2590025390625 200.93994140625 68.38760390625 206.419372265625C70.550537109375 212.1665953125 73.942565625 217.3736572265625 78.3256529296875 221.6743470703125C82.6263427734375 226.057434375 87.8334046875 229.44717421875 93.580627734375 231.610107421875C99.06005859375 233.738708203125 105.319976953125 235.194397265625 114.4889830078125 235.6132505859375C123.6740109375 236.0321044921875 126.6082763671875 236.1328125 150 236.1328125S176.3259890625 236.0321044921875 185.5110169921875 235.6109619140625C194.680023046875 235.194397265625 200.93994140625 233.738708203125 206.419372265625 231.61239609375C212.1665953125 229.449462890625 217.3736572265625 226.057434375 221.6766357421875 221.6743470703125C226.057434375 217.3713685546875 229.449462890625 212.1665953125 231.610107421875 206.419372265625C233.7409974609375 200.93994140625 235.1966859375 194.680023046875 235.61553984375 185.5110169921875C236.0343931640625 176.3259890625 236.1328125 173.3917236328125 236.1328125 150S236.0343931640625 123.6740109375 235.6132505859375 114.4889830078125zM235.6132505859375 114.4889830078125" />
    <glyph glyph-name="020-instagram-1"
      unicode="&#x30;&#x32;&#x30;&#x2D;&#x69;&#x6E;&#x73;&#x74;&#x61;&#x67;&#x72;&#x61;&#x6D;"
      horiz-adv-x="300" d="M178.7109375 150C178.7109375 134.14306640625 165.85693359375 121.2890625 150 121.2890625S121.2890625 134.14306640625 121.2890625 150S134.14306640625 178.7109375 150 178.7109375S178.7109375 165.85693359375 178.7109375 150zM178.7109375 150M217.144775390625 200.798034375C215.7646177734375 204.5379638671875 213.5627748046875 207.9231263671875 210.7017515625 210.7017515625C207.9231263671875 213.5627748046875 204.5402525390625 215.7646177734375 200.7980343750001 217.144775390625C197.7630615234375 218.3235169921875 193.2037353515625 219.7265625 184.8060609375 220.1087953125C175.7217410156251 220.5230712890625 172.9980468750001 220.6123353515625 150.0000000000001 220.6123353515625C126.9996644531251 220.6123353515625 124.2759703125001 220.5253599609375 115.1939390625001 220.111083984375C106.7962646484376 219.7265625 102.2346498046876 218.3235169921875 99.2019656250001 217.144775390625C95.4597474609376 215.7646177734375 92.0745849609376 213.5627748046875 89.2982484375001 210.7017515625C86.4372251953126 207.9231263671875 84.2353822265626 204.5402525390625 82.8529359375001 200.798034375C81.6741943359376 197.7630615234375 80.2711488281251 193.2014466796875 79.8889160156251 184.803772265625C79.4746400390626 175.721741015625 79.3853759765626 172.998046875 79.3853759765626 149.997711328125C79.3853759765626 126.999664453125 79.4746400390626 124.2759703125 79.8889160156251 115.191650390625C80.2711488281251 106.7939759765625 81.6741943359376 102.2346498046875 82.8529359375001 99.1996763671875C84.2353822265626 95.457458203125 86.4349365234376 92.0745849609375 89.2959597656251 89.295959765625C92.0745849609376 86.4349365234375 95.4574582031251 84.23309296875 99.1996763671876 82.8529359375C102.2346498046876 81.6719056640625 106.7962646484376 80.2688601562501 115.1939390625001 79.88662734375C124.2759703125001 79.47235078125 126.9973757812501 79.3853759765625 149.9977113281251 79.3853759765625C173.0003355468751 79.3853759765625 175.7240296875 79.47235078125 184.8037722656251 79.88662734375C193.2014466796875 80.2688601562501 197.7630615234376 81.6719056640625 200.7980343750001 82.8529359375C208.3099365234376 85.7505796875001 214.2471316406251 91.6877748046875 217.1447753906251 99.1996763671876C218.3235169921876 102.2346498046875 219.7265625000001 106.7939759765625 220.1110839843751 115.1916503906251C220.5253599609376 124.2759703125001 220.6123353515626 126.999664453125 220.6123353515626 149.997711328125C220.6123353515626 172.9980468750001 220.5253599609376 175.7217410156251 220.1110839843751 184.8037722656251C219.7288511718751 193.2014466796875 218.3258056640626 197.7630615234376 217.1447753906251 200.7980343750001zM150 105.7708740234375C125.571441796875 105.7708740234375 105.7685853515625 125.571441796875 105.7685853515625 150S125.571441796875 194.2291259765625 150 194.2291259765625C174.42626953125 194.2291259765625 194.2291259765625 174.428558203125 194.2291259765625 150S174.42626953125 105.7708740234375 150 105.7708740234375zM195.977783203125 185.6414794921875C190.269469921875 185.6414794921875 185.6414794921875 190.269469921875 185.6414794921875 195.977783203125S190.269469921875 206.3140869140625 195.977783203125 206.3140869140625S206.3140869140625 201.686096484375 206.3140869140625 195.977783203125C206.3117982421875 190.269469921875 201.686096484375 185.6414794921875 195.977783203125 185.6414794921875zM195.977783203125 185.6414794921875M150 300C67.1699525390625 300 0 232.8300474609375 0 150S67.1699525390625 0 150 0S300 67.1699525390625 300 150S232.8300474609375 300 150 300zM235.6132505859375 114.4889830078125C235.1966859375 105.319976953125 233.738708203125 99.06005859375 231.6101074218751 93.580627734375C227.1354673828125 82.01065078125 217.98934921875 72.8645326171875 206.4193722656251 68.389892578125C200.942230078125 66.261291796875 194.680023046875 64.805602734375 185.5133056640625 64.3867494140625C176.328277734375 63.9678955078125 173.3940123046875 63.8671875 150.002288671875 63.8671875C126.6082763671875 63.8671875 123.6763001953125 63.9678955078125 114.4889830078125 64.3867494140625C105.322265625 64.805602734375 99.06005859375 66.261291796875 93.58291640625 68.389892578125C87.8334046875 70.55282578125 82.6286314453125 73.942565625 78.3256529296875 78.3256529296875C73.9448548828125 82.6263427734375 70.555114453125 87.8334046875 68.39218125 93.580627734375C66.26358046875 99.057769921875 64.805602734375 105.319976953125 64.3890380859375 114.4866943359375C63.9656068359375 123.6740109375 63.8671875 126.6082763671875 63.8671875 150S63.9656068359375 176.3259890625 64.3867494140625 185.5110169921875C64.8033140625 194.680023046875 66.2590025390625 200.93994140625 68.38760390625 206.419372265625C70.550537109375 212.1665953125 73.942565625 217.3736572265625 78.3256529296875 221.6743470703125C82.6263427734375 226.057434375 87.8334046875 229.44717421875 93.580627734375 231.610107421875C99.06005859375 233.738708203125 105.319976953125 235.194397265625 114.4889830078125 235.6132505859375C123.6740109375 236.0321044921875 126.6082763671875 236.1328125 150 236.1328125S176.3259890625 236.0321044921875 185.5110169921875 235.6109619140625C194.680023046875 235.194397265625 200.93994140625 233.738708203125 206.419372265625 231.61239609375C212.1665953125 229.449462890625 217.3736572265625 226.057434375 221.6766357421875 221.6743470703125C226.057434375 217.3713685546875 229.449462890625 212.1665953125 231.610107421875 206.419372265625C233.7409974609375 200.93994140625 235.1966859375 194.680023046875 235.61553984375 185.5110169921875C236.0343931640625 176.3259890625 236.1328125 173.3917236328125 236.1328125 150S236.0343931640625 123.6740109375 235.6132505859375 114.4889830078125zM235.6132505859375 114.4889830078125" />
  </font>
</defs>
</svg>
